Record Length,2.500000e+03,,  -0.000500000000,   0.00000,
Sample Interval,2.000000e-06,,  -0.000498000000,   0.08000,
Trigger Point,2.500000000000e+02,,  -0.000496000000,   0.00000,
,,,  -0.000494000000,   0.00000,
,,,  -0.000492000000,   0.00000,
,,,  -0.000490000000,   0.08000,
Source,CH1,,  -0.000488000000,   0.00000,
Vertical Units,V,,  -0.000486000000,   0.08000,
Vertical Scale,2.000000e+00,,  -0.000484000000,   0.08000,
Vertical Offset,0.000000e+00,,  -0.000482000000,   0.00000,
Horizontal Units,s,,  -0.000480000000,   0.00000,
Horizontal Scale,5.000000e-04,,  -0.000478000000,   0.00000,
Pt Fmt,Y,,  -0.000476000000,   0.00000,
Yzero,0.000000e+00,,  -0.000474000000,   0.00000,
Probe Atten,1.000000e+00,,  -0.000472000000,   0.00000,
Model Number,TDS2004C,,  -0.000470000000,   0.00000,
Serial Number,C011861,,  -0.000468000000,   0.00000,
Firmware Version,FV:v24.15,,  -0.000466000000,   0.00000,
,,,-00.000464000000,   0.00000,
,,,-00.000462000000,   0.00000,
,,,-00.000460000000,   0.00000,
,,,-00.000458000000,   0.00000,
,,,-00.000456000000,   0.00000,
,,,-00.000454000000,   0.00000,
,,,-00.000452000000,   0.00000,
,,,-00.000450000000,   0.00000,
,,,-00.000448000000,   0.00000,
,,,-00.000446000000,   0.08000,
,,,-00.000444000000,   0.00000,
,,,-00.000442000000,   0.00000,
,,,-00.000440000000,   0.00000,
,,,-00.000438000000,   0.00000,
,,,-00.000436000000,   0.00000,
,,,-00.000434000000,   0.00000,
,,,-00.000432000000,   0.00000,
,,,-00.000430000000,   0.08000,
,,,-00.000428000000,   0.08000,
,,,-00.000426000000,   0.00000,
,,,-00.000424000000,   0.08000,
,,,-00.000422000000,   0.00000,
,,,-00.000420000000,   0.00000,
,,,-00.000418000000,   0.08000,
,,,-00.000416000000,   0.08000,
,,,-00.000414000000,   0.00000,
,,,-00.000412000000,   0.00000,
,,,-00.000410000000,   0.00000,
,,,-00.000408000000,   0.00000,
,,,-00.000406000000,   0.08000,
,,,-00.000404000000,   0.00000,
,,,-00.000402000000,   0.08000,
,,,-00.000400000000,   0.00000,
,,,-00.000398000000,   0.00000,
,,,-00.000396000000,   0.00000,
,,,-00.000394000000,   0.00000,
,,,-00.000392000000,   0.00000,
,,,-00.000390000000,   0.00000,
,,,-00.000388000000,   0.00000,
,,,-00.000386000000,   0.00000,
,,,-00.000384000000,   0.00000,
,,,-00.000382000000,   0.00000,
,,,-00.000380000000,   0.00000,
,,,-00.000378000000,   0.00000,
,,,-00.000376000000,   0.08000,
,,,-00.000374000000,   0.00000,
,,,-00.000372000000,   0.00000,
,,,-00.000370000000,   0.00000,
,,,-00.000368000000,   0.00000,
,,,-00.000366000000,   0.00000,
,,,-00.000364000000,   0.08000,
,,,-00.000362000000,   0.00000,
,,,-00.000360000000,   0.00000,
,,,-00.000358000000,   0.00000,
,,,-00.000356000000,   0.00000,
,,,-00.000354000000,   0.00000,
,,,-00.000352000000,   0.08000,
,,,-00.000350000000,   0.00000,
,,,-00.000348000000,   0.00000,
,,,-00.000346000000,   0.00000,
,,,-00.000344000000,   0.00000,
,,,-00.000342000000,   0.00000,
,,,-00.000340000000,   0.00000,
,,,-00.000338000000,   0.00000,
,,,-00.000336000000,   0.08000,
,,,-00.000334000000,   0.00000,
,,,-00.000332000000,   0.08000,
,,,-00.000330000000,   0.08000,
,,,-00.000328000000,   0.00000,
,,,-00.000326000000,   0.08000,
,,,-00.000324000000,   0.00000,
,,,-00.000322000000,   0.08000,
,,,-00.000320000000,   0.00000,
,,,-00.000318000000,   0.00000,
,,,-00.000316000000,   0.00000,
,,,-00.000314000000,   0.00000,
,,,-00.000312000000,   0.00000,
,,,-00.000310000000,   0.00000,
,,,-00.000308000000,   0.00000,
,,,-00.000306000000,   0.00000,
,,,-00.000304000000,   0.00000,
,,,-00.000302000000,   0.08000,
,,,-00.000300000000,   0.08000,
,,,-00.000298000000,   0.00000,
,,,-00.000296000000,   0.00000,
,,,-00.000294000000,   0.00000,
,,,-00.000292000000,   0.08000,
,,,-00.000290000000,   0.08000,
,,,-00.000288000000,   0.00000,
,,,-00.000286000000,   0.08000,
,,,-00.000284000000,   0.00000,
,,,-00.000282000000,   0.08000,
,,,-00.000280000000,   0.00000,
,,,-00.000278000000,   0.00000,
,,,-00.000276000000,   0.00000,
,,,-00.000274000000,   0.00000,
,,,-00.000272000000,   0.00000,
,,,-00.000270000000,   0.00000,
,,,-00.000268000000,   0.00000,
,,,-00.000266000000,   0.00000,
,,,-00.000264000000,   0.00000,
,,,-00.000262000000,   0.00000,
,,,-00.000260000000,   0.00000,
,,,-00.000258000000,   0.00000,
,,,-00.000256000000,   0.08000,
,,,-00.000254000000,   0.00000,
,,,-00.000252000000,   0.00000,
,,,-00.000250000000,   0.00000,
,,,-00.000248000000,   0.00000,
,,,-00.000246000000,   0.00000,
,,,-00.000244000000,   0.00000,
,,,-00.000242000000,   0.00000,
,,,-00.000240000000,   0.00000,
,,,-00.000238000000,   0.08000,
,,,-00.000236000000,   0.08000,
,,,-00.000234000000,   0.00000,
,,,-00.000232000000,   0.00000,
,,,-00.000230000000,   0.00000,
,,,-00.000228000000,   0.00000,
,,,-00.000226000000,   0.08000,
,,,-00.000224000000,   0.00000,
,,,-00.000222000000,   0.00000,
,,,-00.000220000000,   0.00000,
,,,-00.000218000000,   0.00000,
,,,-00.000216000000,   0.00000,
,,,-00.000214000000,   0.00000,
,,,-00.000212000000,   0.00000,
,,,-00.000210000000,   0.00000,
,,,-00.000208000000,   0.00000,
,,,-00.000206000000,   0.00000,
,,,-00.000204000000,   0.00000,
,,,-00.000202000000,   0.00000,
,,,-00.000200000000,   0.00000,
,,,-00.000198000000,   0.00000,
,,,-00.000196000000,   0.00000,
,,,-00.000194000000,   0.00000,
,,,-00.000192000000,   0.00000,
,,,-00.000190000000,   0.08000,
,,,-00.000188000000,   0.00000,
,,,-00.000186000000,   0.00000,
,,,-00.000184000000,   0.00000,
,,,-00.000182000000,   0.00000,
,,,-00.000180000000,   0.00000,
,,,-00.000178000000,   0.00000,
,,,-00.000176000000,   0.00000,
,,,-00.000174000000,   0.00000,
,,,-00.000172000000,   0.00000,
,,,-00.000170000000,   0.00000,
,,,-00.000168000000,   0.00000,
,,,-00.000166000000,   0.00000,
,,,-00.000164000000,   0.08000,
,,,-00.000162000000,   0.08000,
,,,-00.000160000000,   0.00000,
,,,-00.000158000000,   0.00000,
,,,-00.000156000000,   0.00000,
,,,-00.000154000000,   0.00000,
,,,-00.000152000000,   0.00000,
,,,-00.000150000000,   0.00000,
,,,-00.000148000000,   0.00000,
,,,-00.000146000000,   0.00000,
,,,-00.000144000000,   0.00000,
,,,-00.000142000000,   0.00000,
,,,-00.000140000000,   0.00000,
,,,-00.000138000000,   0.00000,
,,,-00.000136000000,  -0.08000,
,,,-00.000134000000,   0.00000,
,,,-00.000132000000,   0.08000,
,,,-00.000130000000,   0.00000,
,,,-00.000128000000,   0.00000,
,,,-00.000126000000,   0.00000,
,,,-00.000124000000,   0.00000,
,,,-00.000122000000,   0.00000,
,,,-00.000120000000,   0.00000,
,,,-00.000118000000,   0.00000,
,,,-00.000116000000,   0.00000,
,,,-00.000114000000,   0.08000,
,,,-00.000112000000,   0.00000,
,,,-00.000110000000,   0.00000,
,,,-00.000108000000,   0.00000,
,,,-00.000106000000,   0.00000,
,,,-00.000104000000,   0.00000,
,,,-00.000102000000,   0.00000,
,,,-00.000100000000,   0.00000,
,,,-00.000098000000,   0.00000,
,,,-00.000096000000,   0.00000,
,,,-00.000094000000,   0.00000,
,,,-00.000092000000,   0.08000,
,,,-00.000090000000,   0.00000,
,,,-00.000088000000,   0.00000,
,,,-00.000086000000,   0.00000,
,,,-00.000084000000,   0.00000,
,,,-00.000082000000,   0.00000,
,,,-00.000080000000,   0.08000,
,,,-00.000078000000,   0.00000,
,,,-00.000076000000,   0.00000,
,,,-00.000074000000,  -0.08000,
,,,-00.000072000000,   0.00000,
,,,-00.000070000000,   0.00000,
,,,-00.000068000000,   0.00000,
,,,-00.000066000000,   0.00000,
,,,-00.000064000000,   0.00000,
,,,-00.000062000000,   0.00000,
,,,-00.000060000000,  -0.08000,
,,,-00.000058000000,   0.00000,
,,,-00.000056000000,   0.00000,
,,,-00.000054000000,   0.00000,
,,,-00.000052000000,   0.08000,
,,,-00.000050000000,   0.08000,
,,,-00.000048000000,   0.00000,
,,,-00.000046000000,   0.00000,
,,,-00.000044000000,   0.00000,
,,,-00.000042000000,   0.00000,
,,,-00.000040000000,   0.00000,
,,,-00.000038000000,   0.00000,
,,,-00.000036000000,   0.00000,
,,,-00.000034000000,   0.00000,
,,,-00.000032000000,   0.00000,
,,,-00.000030000000,   0.00000,
,,,-00.000028000000,   0.00000,
,,,-00.000026000000,   0.00000,
,,,-00.000024000000,   0.00000,
,,,-00.000022000000,   0.00000,
,,,-00.000020000000,   0.00000,
,,,-00.000018000000,   0.00000,
,,,-00.000016000000,   0.00000,
,,,-00.000014000000,   0.00000,
,,,-00.000012000000,   0.00000,
,,,-00.000010000000,   0.00000,
,,,-00.000008000000,   0.00000,
,,,-00.000006000000,   0.00000,
,,,-00.000004000000,   0.08000,
,,,-00.000002000000,   0.00000,
,,,-00.000000000000,   0.00000,
,,,00.000002000000,   0.00000,
,,,00.000004000000,   0.00000,
,,,00.000006000000,   1.68000,
,,,00.000008000000,   2.80000,
,,,00.000010000000,   3.52000,
,,,00.000012000000,   3.92000,
,,,00.000014000000,   4.16000,
,,,00.000016000000,   4.32000,
,,,00.000018000000,   4.40000,
,,,00.000020000000,   4.56000,
,,,00.000022000000,   4.64000,
,,,00.000024000000,   4.56000,
,,,00.000026000000,   4.64000,
,,,00.000028000000,   4.64000,
,,,00.000030000000,   4.64000,
,,,00.000032000000,   4.64000,
,,,00.000034000000,   4.64000,
,,,00.000036000000,   4.64000,
,,,00.000038000000,   4.56000,
,,,00.000040000000,   4.64000,
,,,00.000042000000,   4.56000,
,,,00.000044000000,   4.56000,
,,,00.000046000000,   4.56000,
,,,00.000048000000,   4.56000,
,,,00.000050000000,   4.64000,
,,,00.000052000000,   4.56000,
,,,00.000054000000,   4.56000,
,,,00.000056000000,   4.56000,
,,,00.000058000000,   4.56000,
,,,00.000060000000,   4.56000,
,,,00.000062000000,   4.48000,
,,,00.000064000000,   4.48000,
,,,00.000066000000,   4.48000,
,,,00.000068000000,   4.48000,
,,,00.000070000000,   4.56000,
,,,00.000072000000,   4.48000,
,,,00.000074000000,   4.48000,
,,,00.000076000000,   4.48000,
,,,00.000078000000,   4.56000,
,,,00.000080000000,   4.40000,
,,,00.000082000000,   4.40000,
,,,00.000084000000,   4.40000,
,,,00.000086000000,   4.40000,
,,,00.000088000000,   4.40000,
,,,00.000090000000,   4.40000,
,,,00.000092000000,   4.40000,
,,,00.000094000000,   4.40000,
,,,00.000096000000,   4.40000,
,,,00.000098000000,   4.40000,
,,,00.000100000000,   4.40000,
,,,00.000102000000,   4.40000,
,,,00.000104000000,   4.40000,
,,,00.000106000000,   4.40000,
,,,00.000108000000,   4.32000,
,,,00.000110000000,   4.32000,
,,,00.000112000000,   4.32000,
,,,00.000114000000,   4.32000,
,,,00.000116000000,   4.32000,
,,,00.000118000000,   4.32000,
,,,00.000120000000,   4.32000,
,,,00.000122000000,   4.32000,
,,,00.000124000000,   4.32000,
,,,00.000126000000,   4.24000,
,,,00.000128000000,   4.24000,
,,,00.000130000000,   4.24000,
,,,00.000132000000,   4.32000,
,,,00.000134000000,   4.32000,
,,,00.000136000000,   4.24000,
,,,00.000138000000,   4.24000,
,,,00.000140000000,   4.24000,
,,,00.000142000000,   4.24000,
,,,00.000144000000,   4.24000,
,,,00.000146000000,   4.24000,
,,,00.000148000000,   4.24000,
,,,00.000150000000,   4.16000,
,,,00.000152000000,   4.24000,
,,,00.000154000000,   4.24000,
,,,00.000156000000,   4.16000,
,,,00.000158000000,   4.16000,
,,,00.000160000000,   4.24000,
,,,00.000162000000,   4.16000,
,,,00.000164000000,   4.16000,
,,,00.000166000000,   4.24000,
,,,00.000168000000,   4.16000,
,,,00.000170000000,   4.16000,
,,,00.000172000000,   4.16000,
,,,00.000174000000,   4.16000,
,,,00.000176000000,   4.16000,
,,,00.000178000000,   4.08000,
,,,00.000180000000,   4.08000,
,,,00.000182000000,   4.08000,
,,,00.000184000000,   4.08000,
,,,00.000186000000,   4.08000,
,,,00.000188000000,   4.08000,
,,,00.000190000000,   4.08000,
,,,00.000192000000,   4.00000,
,,,00.000194000000,   4.08000,
,,,00.000196000000,   4.08000,
,,,00.000198000000,   4.00000,
,,,00.000200000000,   4.08000,
,,,00.000202000000,   4.00000,
,,,00.000204000000,   4.00000,
,,,00.000206000000,   4.00000,
,,,00.000208000000,   4.00000,
,,,00.000210000000,   4.00000,
,,,00.000212000000,   4.00000,
,,,00.000214000000,   4.08000,
,,,00.000216000000,   4.00000,
,,,00.000218000000,   4.00000,
,,,00.000220000000,   4.00000,
,,,00.000222000000,   4.00000,
,,,00.000224000000,   3.92000,
,,,00.000226000000,   4.00000,
,,,00.000228000000,   3.92000,
,,,00.000230000000,   3.92000,
,,,00.000232000000,   4.00000,
,,,00.000234000000,   4.00000,
,,,00.000236000000,   3.92000,
,,,00.000238000000,   3.84000,
,,,00.000240000000,   3.92000,
,,,00.000242000000,   3.92000,
,,,00.000244000000,   3.92000,
,,,00.000246000000,   3.92000,
,,,00.000248000000,   3.92000,
,,,00.000250000000,   3.92000,
,,,00.000252000000,   3.92000,
,,,00.000254000000,   3.84000,
,,,00.000256000000,   3.84000,
,,,00.000258000000,   3.84000,
,,,00.000260000000,   3.84000,
,,,00.000262000000,   3.84000,
,,,00.000264000000,   3.84000,
,,,00.000266000000,   3.84000,
,,,00.000268000000,   3.76000,
,,,00.000270000000,   3.84000,
,,,00.000272000000,   3.84000,
,,,00.000274000000,   3.76000,
,,,00.000276000000,   3.84000,
,,,00.000278000000,   3.84000,
,,,00.000280000000,   3.76000,
,,,00.000282000000,   3.76000,
,,,00.000284000000,   3.76000,
,,,00.000286000000,   3.76000,
,,,00.000288000000,   3.76000,
,,,00.000290000000,   3.76000,
,,,00.000292000000,   3.76000,
,,,00.000294000000,   3.76000,
,,,00.000296000000,   3.76000,
,,,00.000298000000,   3.68000,
,,,00.000300000000,   3.68000,
,,,00.000302000000,   3.68000,
,,,00.000304000000,   3.68000,
,,,00.000306000000,   3.68000,
,,,00.000308000000,   3.68000,
,,,00.000310000000,   3.68000,
,,,00.000312000000,   3.68000,
,,,00.000314000000,   3.68000,
,,,00.000316000000,   3.68000,
,,,00.000318000000,   3.68000,
,,,00.000320000000,   3.68000,
,,,00.000322000000,   3.60000,
,,,00.000324000000,   3.68000,
,,,00.000326000000,   3.68000,
,,,00.000328000000,   3.68000,
,,,00.000330000000,   3.68000,
,,,00.000332000000,   3.68000,
,,,00.000334000000,   3.60000,
,,,00.000336000000,   3.60000,
,,,00.000338000000,   3.60000,
,,,00.000340000000,   3.60000,
,,,00.000342000000,   3.68000,
,,,00.000344000000,   3.60000,
,,,00.000346000000,   3.60000,
,,,00.000348000000,   3.52000,
,,,00.000350000000,   3.52000,
,,,00.000352000000,   3.60000,
,,,00.000354000000,   3.52000,
,,,00.000356000000,   3.52000,
,,,00.000358000000,   3.52000,
,,,00.000360000000,   3.60000,
,,,00.000362000000,   3.52000,
,,,00.000364000000,   3.60000,
,,,00.000366000000,   3.52000,
,,,00.000368000000,   3.52000,
,,,00.000370000000,   3.52000,
,,,00.000372000000,   3.52000,
,,,00.000374000000,   3.52000,
,,,00.000376000000,   3.52000,
,,,00.000378000000,   3.52000,
,,,00.000380000000,   3.52000,
,,,00.000382000000,   3.52000,
,,,00.000384000000,   3.44000,
,,,00.000386000000,   3.44000,
,,,00.000388000000,   3.44000,
,,,00.000390000000,   3.52000,
,,,00.000392000000,   3.44000,
,,,00.000394000000,   3.44000,
,,,00.000396000000,   3.44000,
,,,00.000398000000,   3.44000,
,,,00.000400000000,   3.44000,
,,,00.000402000000,   3.44000,
,,,00.000404000000,   3.44000,
,,,00.000406000000,   3.36000,
,,,00.000408000000,   3.44000,
,,,00.000410000000,   3.36000,
,,,00.000412000000,   3.36000,
,,,00.000414000000,   3.44000,
,,,00.000416000000,   3.44000,
,,,00.000418000000,   3.36000,
,,,00.000420000000,   3.36000,
,,,00.000422000000,   3.36000,
,,,00.000424000000,   3.36000,
,,,00.000426000000,   3.36000,
,,,00.000428000000,   3.28000,
,,,00.000430000000,   3.28000,
,,,00.000432000000,   3.36000,
,,,00.000434000000,   3.36000,
,,,00.000436000000,   3.28000,
,,,00.000438000000,   3.28000,
,,,00.000440000000,   3.36000,
,,,00.000442000000,   3.36000,
,,,00.000444000000,   3.28000,
,,,00.000446000000,   3.28000,
,,,00.000448000000,   3.28000,
,,,00.000450000000,   3.28000,
,,,00.000452000000,   3.28000,
,,,00.000454000000,   3.20000,
,,,00.000456000000,   3.28000,
,,,00.000458000000,   3.28000,
,,,00.000460000000,   3.28000,
,,,00.000462000000,   3.20000,
,,,00.000464000000,   3.28000,
,,,00.000466000000,   3.28000,
,,,00.000468000000,   3.20000,
,,,00.000470000000,   3.28000,
,,,00.000472000000,   3.20000,
,,,00.000474000000,   3.20000,
,,,00.000476000000,   3.20000,
,,,00.000478000000,   3.28000,
,,,00.000480000000,   3.28000,
,,,00.000482000000,   3.20000,
,,,00.000484000000,   3.20000,
,,,00.000486000000,   3.20000,
,,,00.000488000000,   3.12000,
,,,00.000490000000,   3.20000,
,,,00.000492000000,   3.12000,
,,,00.000494000000,   3.20000,
,,,00.000496000000,   3.20000,
,,,00.000498000000,   3.20000,
,,,00.000500000000,   3.12000,
,,,00.000502000000,   3.12000,
,,,00.000504000000,   3.12000,
,,,00.000506000000,   3.12000,
,,,00.000508000000,   3.12000,
,,,00.000510000000,   3.12000,
,,,00.000512000000,   3.12000,
,,,00.000514000000,   3.12000,
,,,00.000516000000,   3.12000,
,,,00.000518000000,   3.12000,
,,,00.000520000000,   3.12000,
,,,00.000522000000,   3.12000,
,,,00.000524000000,   3.12000,
,,,00.000526000000,   3.12000,
,,,00.000528000000,   3.12000,
,,,00.000530000000,   3.12000,
,,,00.000532000000,   3.04000,
,,,00.000534000000,   3.04000,
,,,00.000536000000,   3.04000,
,,,00.000538000000,   3.04000,
,,,00.000540000000,   3.04000,
,,,00.000542000000,   3.04000,
,,,00.000544000000,   3.04000,
,,,00.000546000000,   3.04000,
,,,00.000548000000,   3.04000,
,,,00.000550000000,   3.04000,
,,,00.000552000000,   2.96000,
,,,00.000554000000,   2.96000,
,,,00.000556000000,   3.04000,
,,,00.000558000000,   2.96000,
,,,00.000560000000,   3.04000,
,,,00.000562000000,   3.04000,
,,,00.000564000000,   2.96000,
,,,00.000566000000,   2.96000,
,,,00.000568000000,   2.96000,
,,,00.000570000000,   2.96000,
,,,00.000572000000,   2.96000,
,,,00.000574000000,   2.96000,
,,,00.000576000000,   3.04000,
,,,00.000578000000,   3.04000,
,,,00.000580000000,   2.96000,
,,,00.000582000000,   2.96000,
,,,00.000584000000,   2.96000,
,,,00.000586000000,   2.96000,
,,,00.000588000000,   2.96000,
,,,00.000590000000,   2.96000,
,,,00.000592000000,   2.96000,
,,,00.000594000000,   2.96000,
,,,00.000596000000,   2.96000,
,,,00.000598000000,   2.96000,
,,,00.000600000000,   2.96000,
,,,00.000602000000,   2.96000,
,,,00.000604000000,   2.88000,
,,,00.000606000000,   2.88000,
,,,00.000608000000,   2.96000,
,,,00.000610000000,   2.88000,
,,,00.000612000000,   2.88000,
,,,00.000614000000,   2.88000,
,,,00.000616000000,   2.88000,
,,,00.000618000000,   2.88000,
,,,00.000620000000,   2.88000,
,,,00.000622000000,   2.88000,
,,,00.000624000000,   2.88000,
,,,00.000626000000,   2.88000,
,,,00.000628000000,   2.88000,
,,,00.000630000000,   2.88000,
,,,00.000632000000,   2.88000,
,,,00.000634000000,   2.80000,
,,,00.000636000000,   2.80000,
,,,00.000638000000,   2.88000,
,,,00.000640000000,   2.88000,
,,,00.000642000000,   2.80000,
,,,00.000644000000,   2.80000,
,,,00.000646000000,   2.80000,
,,,00.000648000000,   2.80000,
,,,00.000650000000,   2.80000,
,,,00.000652000000,   2.80000,
,,,00.000654000000,   2.80000,
,,,00.000656000000,   2.80000,
,,,00.000658000000,   2.80000,
,,,00.000660000000,   2.80000,
,,,00.000662000000,   2.80000,
,,,00.000664000000,   2.80000,
,,,00.000666000000,   2.72000,
,,,00.000668000000,   2.72000,
,,,00.000670000000,   2.80000,
,,,00.000672000000,   2.72000,
,,,00.000674000000,   2.72000,
,,,00.000676000000,   2.72000,
,,,00.000678000000,   2.72000,
,,,00.000680000000,   2.80000,
,,,00.000682000000,   2.72000,
,,,00.000684000000,   2.72000,
,,,00.000686000000,   2.72000,
,,,00.000688000000,   2.72000,
,,,00.000690000000,   2.72000,
,,,00.000692000000,   2.72000,
,,,00.000694000000,   2.72000,
,,,00.000696000000,   2.72000,
,,,00.000698000000,   2.72000,
,,,00.000700000000,   2.72000,
,,,00.000702000000,   2.72000,
,,,00.000704000000,   2.72000,
,,,00.000706000000,   2.72000,
,,,00.000708000000,   2.72000,
,,,00.000710000000,   2.64000,
,,,00.000712000000,   2.72000,
,,,00.000714000000,   2.64000,
,,,00.000716000000,   2.64000,
,,,00.000718000000,   2.72000,
,,,00.000720000000,   2.64000,
,,,00.000722000000,   2.64000,
,,,00.000724000000,   2.64000,
,,,00.000726000000,   2.64000,
,,,00.000728000000,   2.64000,
,,,00.000730000000,   2.64000,
,,,00.000732000000,   2.56000,
,,,00.000734000000,   2.56000,
,,,00.000736000000,   2.64000,
,,,00.000738000000,   2.56000,
,,,00.000740000000,   2.56000,
,,,00.000742000000,   2.56000,
,,,00.000744000000,   2.64000,
,,,00.000746000000,   2.56000,
,,,00.000748000000,   2.56000,
,,,00.000750000000,   2.56000,
,,,00.000752000000,   2.56000,
,,,00.000754000000,   2.56000,
,,,00.000756000000,   2.56000,
,,,00.000758000000,   2.56000,
,,,00.000760000000,   2.64000,
,,,00.000762000000,   2.56000,
,,,00.000764000000,   2.56000,
,,,00.000766000000,   2.56000,
,,,00.000768000000,   2.56000,
,,,00.000770000000,   2.48000,
,,,00.000772000000,   2.56000,
,,,00.000774000000,   2.56000,
,,,00.000776000000,   2.56000,
,,,00.000778000000,   2.56000,
,,,00.000780000000,   2.48000,
,,,00.000782000000,   2.48000,
,,,00.000784000000,   2.48000,
,,,00.000786000000,   2.48000,
,,,00.000788000000,   2.56000,
,,,00.000790000000,   2.48000,
,,,00.000792000000,   2.48000,
,,,00.000794000000,   2.48000,
,,,00.000796000000,   2.56000,
,,,00.000798000000,   2.48000,
,,,00.000800000000,   2.40000,
,,,00.000802000000,   2.48000,
,,,00.000804000000,   2.48000,
,,,00.000806000000,   2.56000,
,,,00.000808000000,   2.48000,
,,,00.000810000000,   2.48000,
,,,00.000812000000,   2.48000,
,,,00.000814000000,   2.40000,
,,,00.000816000000,   2.48000,
,,,00.000818000000,   2.48000,
,,,00.000820000000,   2.40000,
,,,00.000822000000,   2.40000,
,,,00.000824000000,   2.40000,
,,,00.000826000000,   2.40000,
,,,00.000828000000,   2.40000,
,,,00.000830000000,   2.48000,
,,,00.000832000000,   2.40000,
,,,00.000834000000,   2.40000,
,,,00.000836000000,   2.40000,
,,,00.000838000000,   2.40000,
,,,00.000840000000,   2.40000,
,,,00.000842000000,   2.40000,
,,,00.000844000000,   2.40000,
,,,00.000846000000,   2.40000,
,,,00.000848000000,   2.40000,
,,,00.000850000000,   2.40000,
,,,00.000852000000,   2.40000,
,,,00.000854000000,   2.32000,
,,,00.000856000000,   2.40000,
,,,00.000858000000,   2.32000,
,,,00.000860000000,   2.32000,
,,,00.000862000000,   2.40000,
,,,00.000864000000,   2.32000,
,,,00.000866000000,   2.40000,
,,,00.000868000000,   2.40000,
,,,00.000870000000,   2.32000,
,,,00.000872000000,   2.32000,
,,,00.000874000000,   2.40000,
,,,00.000876000000,   2.32000,
,,,00.000878000000,   2.32000,
,,,00.000880000000,   2.32000,
,,,00.000882000000,   2.32000,
,,,00.000884000000,   2.32000,
,,,00.000886000000,   2.32000,
,,,00.000888000000,   2.32000,
,,,00.000890000000,   2.32000,
,,,00.000892000000,   2.32000,
,,,00.000894000000,   2.32000,
,,,00.000896000000,   2.32000,
,,,00.000898000000,   2.32000,
,,,00.000900000000,   2.24000,
,,,00.000902000000,   2.24000,
,,,00.000904000000,   2.32000,
,,,00.000906000000,   2.24000,
,,,00.000908000000,   2.32000,
,,,00.000910000000,   2.24000,
,,,00.000912000000,   2.24000,
,,,00.000914000000,   2.24000,
,,,00.000916000000,   2.32000,
,,,00.000918000000,   2.24000,
,,,00.000920000000,   2.24000,
,,,00.000922000000,   2.24000,
,,,00.000924000000,   2.24000,
,,,00.000926000000,   2.24000,
,,,00.000928000000,   2.24000,
,,,00.000930000000,   2.24000,
,,,00.000932000000,   2.24000,
,,,00.000934000000,   2.24000,
,,,00.000936000000,   2.24000,
,,,00.000938000000,   2.16000,
,,,00.000940000000,   2.24000,
,,,00.000942000000,   2.16000,
,,,00.000944000000,   2.24000,
,,,00.000946000000,   2.24000,
,,,00.000948000000,   2.16000,
,,,00.000950000000,   2.16000,
,,,00.000952000000,   2.16000,
,,,00.000954000000,   2.16000,
,,,00.000956000000,   2.16000,
,,,00.000958000000,   2.24000,
,,,00.000960000000,   2.16000,
,,,00.000962000000,   2.16000,
,,,00.000964000000,   2.16000,
,,,00.000966000000,   2.16000,
,,,00.000968000000,   2.16000,
,,,00.000970000000,   2.16000,
,,,00.000972000000,   2.16000,
,,,00.000974000000,   2.16000,
,,,00.000976000000,   2.16000,
,,,00.000978000000,   2.16000,
,,,00.000980000000,   2.16000,
,,,00.000982000000,   2.16000,
,,,00.000984000000,   2.08000,
,,,00.000986000000,   2.16000,
,,,00.000988000000,   2.08000,
,,,00.000990000000,   2.16000,
,,,00.000992000000,   2.08000,
,,,00.000994000000,   2.16000,
,,,00.000996000000,   2.16000,
,,,00.000998000000,   2.16000,
,,,00.001000000000,   2.16000,
,,,00.001002000000,   2.08000,
,,,00.001004000000,   2.08000,
,,,00.001006000000,   2.00000,
,,,00.001008000000,   2.08000,
,,,00.001010000000,   2.16000,
,,,00.001012000000,   2.16000,
,,,00.001014000000,   2.08000,
,,,00.001016000000,   2.08000,
,,,00.001018000000,   2.08000,
,,,00.001020000000,   2.00000,
,,,00.001022000000,   2.08000,
,,,00.001024000000,   2.16000,
,,,00.001026000000,   2.08000,
,,,00.001028000000,   2.08000,
,,,00.001030000000,   2.08000,
,,,00.001032000000,   2.08000,
,,,00.001034000000,   2.00000,
,,,00.001036000000,   2.08000,
,,,00.001038000000,   2.08000,
,,,00.001040000000,   2.08000,
,,,00.001042000000,   2.08000,
,,,00.001044000000,   2.00000,
,,,00.001046000000,   2.00000,
,,,00.001048000000,   2.00000,
,,,00.001050000000,   2.00000,
,,,00.001052000000,   2.00000,
,,,00.001054000000,   2.00000,
,,,00.001056000000,   2.00000,
,,,00.001058000000,   2.00000,
,,,00.001060000000,   2.00000,
,,,00.001062000000,   2.00000,
,,,00.001064000000,   2.00000,
,,,00.001066000000,   2.00000,
,,,00.001068000000,   2.00000,
,,,00.001070000000,   2.00000,
,,,00.001072000000,   2.00000,
,,,00.001074000000,   2.00000,
,,,00.001076000000,   2.00000,
,,,00.001078000000,   2.00000,
,,,00.001080000000,   2.00000,
,,,00.001082000000,   2.00000,
,,,00.001084000000,   2.00000,
,,,00.001086000000,   2.00000,
,,,00.001088000000,   2.00000,
,,,00.001090000000,   1.92000,
,,,00.001092000000,   2.00000,
,,,00.001094000000,   2.00000,
,,,00.001096000000,   1.92000,
,,,00.001098000000,   1.92000,
,,,00.001100000000,   1.92000,
,,,00.001102000000,   2.00000,
,,,00.001104000000,   2.00000,
,,,00.001106000000,   2.00000,
,,,00.001108000000,   1.92000,
,,,00.001110000000,   1.92000,
,,,00.001112000000,   1.92000,
,,,00.001114000000,   1.92000,
,,,00.001116000000,   1.92000,
,,,00.001118000000,   1.92000,
,,,00.001120000000,   1.92000,
,,,00.001122000000,   1.92000,
,,,00.001124000000,   1.92000,
,,,00.001126000000,   1.92000,
,,,00.001128000000,   1.92000,
,,,00.001130000000,   1.84000,
,,,00.001132000000,   1.84000,
,,,00.001134000000,   1.92000,
,,,00.001136000000,   1.92000,
,,,00.001138000000,   1.92000,
,,,00.001140000000,   1.84000,
,,,00.001142000000,   1.92000,
,,,00.001144000000,   1.84000,
,,,00.001146000000,   1.84000,
,,,00.001148000000,   1.84000,
,,,00.001150000000,   1.92000,
,,,00.001152000000,   1.84000,
,,,00.001154000000,   1.84000,
,,,00.001156000000,   1.92000,
,,,00.001158000000,   1.84000,
,,,00.001160000000,   1.84000,
,,,00.001162000000,   1.84000,
,,,00.001164000000,   1.84000,
,,,00.001166000000,   1.84000,
,,,00.001168000000,   1.84000,
,,,00.001170000000,   1.84000,
,,,00.001172000000,   1.84000,
,,,00.001174000000,   1.84000,
,,,00.001176000000,   1.84000,
,,,00.001178000000,   1.84000,
,,,00.001180000000,   1.84000,
,,,00.001182000000,   1.84000,
,,,00.001184000000,   1.84000,
,,,00.001186000000,   1.84000,
,,,00.001188000000,   1.84000,
,,,00.001190000000,   1.84000,
,,,00.001192000000,   1.84000,
,,,00.001194000000,   1.84000,
,,,00.001196000000,   1.76000,
,,,00.001198000000,   1.84000,
,,,00.001200000000,   1.84000,
,,,00.001202000000,   1.76000,
,,,00.001204000000,   1.76000,
,,,00.001206000000,   1.76000,
,,,00.001208000000,   1.76000,
,,,00.001210000000,   1.84000,
,,,00.001212000000,   1.76000,
,,,00.001214000000,   1.84000,
,,,00.001216000000,   1.76000,
,,,00.001218000000,   1.76000,
,,,00.001220000000,   1.76000,
,,,00.001222000000,   1.76000,
,,,00.001224000000,   1.84000,
,,,00.001226000000,   1.76000,
,,,00.001228000000,   1.76000,
,,,00.001230000000,   1.76000,
,,,00.001232000000,   1.76000,
,,,00.001234000000,   1.76000,
,,,00.001236000000,   1.76000,
,,,00.001238000000,   1.76000,
,,,00.001240000000,   1.76000,
,,,00.001242000000,   1.76000,
,,,00.001244000000,   1.68000,
,,,00.001246000000,   1.68000,
,,,00.001248000000,   1.68000,
,,,00.001250000000,   1.76000,
,,,00.001252000000,   1.76000,
,,,00.001254000000,   1.76000,
,,,00.001256000000,   1.76000,
,,,00.001258000000,   1.68000,
,,,00.001260000000,   1.68000,
,,,00.001262000000,   1.68000,
,,,00.001264000000,   1.76000,
,,,00.001266000000,   1.68000,
,,,00.001268000000,   1.68000,
,,,00.001270000000,   1.68000,
,,,00.001272000000,   1.68000,
,,,00.001274000000,   1.68000,
,,,00.001276000000,   1.68000,
,,,00.001278000000,   1.68000,
,,,00.001280000000,   1.68000,
,,,00.001282000000,   1.68000,
,,,00.001284000000,   1.68000,
,,,00.001286000000,   1.60000,
,,,00.001288000000,   1.68000,
,,,00.001290000000,   1.68000,
,,,00.001292000000,   1.68000,
,,,00.001294000000,   1.60000,
,,,00.001296000000,   1.60000,
,,,00.001298000000,   1.68000,
,,,00.001300000000,   1.68000,
,,,00.001302000000,   1.60000,
,,,00.001304000000,   1.60000,
,,,00.001306000000,   1.60000,
,,,00.001308000000,   1.68000,
,,,00.001310000000,   1.60000,
,,,00.001312000000,   1.60000,
,,,00.001314000000,   1.68000,
,,,00.001316000000,   1.60000,
,,,00.001318000000,   1.60000,
,,,00.001320000000,   1.60000,
,,,00.001322000000,   1.60000,
,,,00.001324000000,   1.60000,
,,,00.001326000000,   1.68000,
,,,00.001328000000,   1.60000,
,,,00.001330000000,   1.60000,
,,,00.001332000000,   1.60000,
,,,00.001334000000,   1.60000,
,,,00.001336000000,   1.60000,
,,,00.001338000000,   1.68000,
,,,00.001340000000,   1.60000,
,,,00.001342000000,   1.60000,
,,,00.001344000000,   1.60000,
,,,00.001346000000,   1.60000,
,,,00.001348000000,   1.60000,
,,,00.001350000000,   1.60000,
,,,00.001352000000,   1.60000,
,,,00.001354000000,   1.60000,
,,,00.001356000000,   1.60000,
,,,00.001358000000,   1.60000,
,,,00.001360000000,   1.60000,
,,,00.001362000000,   1.60000,
,,,00.001364000000,   1.60000,
,,,00.001366000000,   1.52000,
,,,00.001368000000,   1.60000,
,,,00.001370000000,   1.60000,
,,,00.001372000000,   1.52000,
,,,00.001374000000,   1.60000,
,,,00.001376000000,   1.52000,
,,,00.001378000000,   1.52000,
,,,00.001380000000,   1.60000,
,,,00.001382000000,   1.52000,
,,,00.001384000000,   1.60000,
,,,00.001386000000,   1.60000,
,,,00.001388000000,   1.60000,
,,,00.001390000000,   1.60000,
,,,00.001392000000,   1.60000,
,,,00.001394000000,   1.60000,
,,,00.001396000000,   1.60000,
,,,00.001398000000,   1.52000,
,,,00.001400000000,   1.52000,
,,,00.001402000000,   1.52000,
,,,00.001404000000,   1.60000,
,,,00.001406000000,   1.52000,
,,,00.001408000000,   1.52000,
,,,00.001410000000,   1.52000,
,,,00.001412000000,   1.52000,
,,,00.001414000000,   1.52000,
,,,00.001416000000,   1.52000,
,,,00.001418000000,   1.52000,
,,,00.001420000000,   1.52000,
,,,00.001422000000,   1.52000,
,,,00.001424000000,   1.52000,
,,,00.001426000000,   1.52000,
,,,00.001428000000,   1.52000,
,,,00.001430000000,   1.52000,
,,,00.001432000000,   1.52000,
,,,00.001434000000,   1.52000,
,,,00.001436000000,   1.52000,
,,,00.001438000000,   1.52000,
,,,00.001440000000,   1.52000,
,,,00.001442000000,   1.44000,
,,,00.001444000000,   1.52000,
,,,00.001446000000,   1.44000,
,,,00.001448000000,   1.52000,
,,,00.001450000000,   1.52000,
,,,00.001452000000,   1.52000,
,,,00.001454000000,   1.44000,
,,,00.001456000000,   1.52000,
,,,00.001458000000,   1.52000,
,,,00.001460000000,   1.52000,
,,,00.001462000000,   1.52000,
,,,00.001464000000,   1.52000,
,,,00.001466000000,   1.44000,
,,,00.001468000000,   1.52000,
,,,00.001470000000,   1.44000,
,,,00.001472000000,   1.44000,
,,,00.001474000000,   1.44000,
,,,00.001476000000,   1.44000,
,,,00.001478000000,   1.44000,
,,,00.001480000000,   1.44000,
,,,00.001482000000,   1.44000,
,,,00.001484000000,   1.44000,
,,,00.001486000000,   1.44000,
,,,00.001488000000,   1.44000,
,,,00.001490000000,   1.44000,
,,,00.001492000000,   1.44000,
,,,00.001494000000,   1.36000,
,,,00.001496000000,   1.44000,
,,,00.001498000000,   1.44000,
,,,00.001500000000,   1.44000,
,,,00.001502000000,   1.44000,
,,,00.001504000000,   1.44000,
,,,00.001506000000,   1.44000,
,,,00.001508000000,   1.44000,
,,,00.001510000000,   1.44000,
,,,00.001512000000,   1.44000,
,,,00.001514000000,   1.44000,
,,,00.001516000000,   1.44000,
,,,00.001518000000,   1.44000,
,,,00.001520000000,   1.44000,
,,,00.001522000000,   1.44000,
,,,00.001524000000,   1.44000,
,,,00.001526000000,   1.44000,
,,,00.001528000000,   1.36000,
,,,00.001530000000,   1.44000,
,,,00.001532000000,   1.44000,
,,,00.001534000000,   1.44000,
,,,00.001536000000,   1.36000,
,,,00.001538000000,   1.36000,
,,,00.001540000000,   1.44000,
,,,00.001542000000,   1.36000,
,,,00.001544000000,   1.36000,
,,,00.001546000000,   1.44000,
,,,00.001548000000,   1.36000,
,,,00.001550000000,   1.36000,
,,,00.001552000000,   1.36000,
,,,00.001554000000,   1.36000,
,,,00.001556000000,   1.36000,
,,,00.001558000000,   1.36000,
,,,00.001560000000,   1.36000,
,,,00.001562000000,   1.28000,
,,,00.001564000000,   1.36000,
,,,00.001566000000,   1.28000,
,,,00.001568000000,   1.36000,
,,,00.001570000000,   1.36000,
,,,00.001572000000,   1.36000,
,,,00.001574000000,   1.36000,
,,,00.001576000000,   1.36000,
,,,00.001578000000,   1.36000,
,,,00.001580000000,   1.36000,
,,,00.001582000000,   1.36000,
,,,00.001584000000,   1.36000,
,,,00.001586000000,   1.36000,
,,,00.001588000000,   1.36000,
,,,00.001590000000,   1.28000,
,,,00.001592000000,   1.36000,
,,,00.001594000000,   1.28000,
,,,00.001596000000,   1.36000,
,,,00.001598000000,   1.36000,
,,,00.001600000000,   1.28000,
,,,00.001602000000,   1.28000,
,,,00.001604000000,   1.28000,
,,,00.001606000000,   1.36000,
,,,00.001608000000,   1.28000,
,,,00.001610000000,   1.28000,
,,,00.001612000000,   1.28000,
,,,00.001614000000,   1.28000,
,,,00.001616000000,   1.36000,
,,,00.001618000000,   1.36000,
,,,00.001620000000,   1.28000,
,,,00.001622000000,   1.36000,
,,,00.001624000000,   1.36000,
,,,00.001626000000,   1.28000,
,,,00.001628000000,   1.28000,
,,,00.001630000000,   1.28000,
,,,00.001632000000,   1.28000,
,,,00.001634000000,   1.28000,
,,,00.001636000000,   1.28000,
,,,00.001638000000,   1.28000,
,,,00.001640000000,   1.28000,
,,,00.001642000000,   1.36000,
,,,00.001644000000,   1.28000,
,,,00.001646000000,   1.28000,
,,,00.001648000000,   1.28000,
,,,00.001650000000,   1.28000,
,,,00.001652000000,   1.28000,
,,,00.001654000000,   1.28000,
,,,00.001656000000,   1.28000,
,,,00.001658000000,   1.28000,
,,,00.001660000000,   1.28000,
,,,00.001662000000,   1.28000,
,,,00.001664000000,   1.28000,
,,,00.001666000000,   1.28000,
,,,00.001668000000,   1.28000,
,,,00.001670000000,   1.28000,
,,,00.001672000000,   1.28000,
,,,00.001674000000,   1.28000,
,,,00.001676000000,   1.28000,
,,,00.001678000000,   1.28000,
,,,00.001680000000,   1.28000,
,,,00.001682000000,   1.20000,
,,,00.001684000000,   1.28000,
,,,00.001686000000,   1.28000,
,,,00.001688000000,   1.28000,
,,,00.001690000000,   1.28000,
,,,00.001692000000,   1.20000,
,,,00.001694000000,   1.28000,
,,,00.001696000000,   1.20000,
,,,00.001698000000,   1.28000,
,,,00.001700000000,   1.20000,
,,,00.001702000000,   1.20000,
,,,00.001704000000,   1.20000,
,,,00.001706000000,   1.28000,
,,,00.001708000000,   1.12000,
,,,00.001710000000,   1.20000,
,,,00.001712000000,   1.20000,
,,,00.001714000000,   1.20000,
,,,00.001716000000,   1.20000,
,,,00.001718000000,   1.20000,
,,,00.001720000000,   1.20000,
,,,00.001722000000,   1.20000,
,,,00.001724000000,   1.28000,
,,,00.001726000000,   1.20000,
,,,00.001728000000,   1.20000,
,,,00.001730000000,   1.20000,
,,,00.001732000000,   1.20000,
,,,00.001734000000,   1.20000,
,,,00.001736000000,   1.20000,
,,,00.001738000000,   1.20000,
,,,00.001740000000,   1.12000,
,,,00.001742000000,   1.20000,
,,,00.001744000000,   1.20000,
,,,00.001746000000,   1.20000,
,,,00.001748000000,   1.20000,
,,,00.001750000000,   1.20000,
,,,00.001752000000,   1.20000,
,,,00.001754000000,   1.20000,
,,,00.001756000000,   1.12000,
,,,00.001758000000,   1.20000,
,,,00.001760000000,   1.12000,
,,,00.001762000000,   1.20000,
,,,00.001764000000,   1.20000,
,,,00.001766000000,   1.20000,
,,,00.001768000000,   1.20000,
,,,00.001770000000,   1.12000,
,,,00.001772000000,   1.20000,
,,,00.001774000000,   1.12000,
,,,00.001776000000,   1.12000,
,,,00.001778000000,   1.12000,
,,,00.001780000000,   1.12000,
,,,00.001782000000,   1.12000,
,,,00.001784000000,   1.20000,
,,,00.001786000000,   1.20000,
,,,00.001788000000,   1.12000,
,,,00.001790000000,   1.12000,
,,,00.001792000000,   1.12000,
,,,00.001794000000,   1.12000,
,,,00.001796000000,   1.12000,
,,,00.001798000000,   1.20000,
,,,00.001800000000,   1.12000,
,,,00.001802000000,   1.12000,
,,,00.001804000000,   1.12000,
,,,00.001806000000,   1.12000,
,,,00.001808000000,   1.20000,
,,,00.001810000000,   1.12000,
,,,00.001812000000,   1.12000,
,,,00.001814000000,   1.12000,
,,,00.001816000000,   1.12000,
,,,00.001818000000,   1.12000,
,,,00.001820000000,   1.12000,
,,,00.001822000000,   1.12000,
,,,00.001824000000,   1.12000,
,,,00.001826000000,   1.20000,
,,,00.001828000000,   1.12000,
,,,00.001830000000,   1.12000,
,,,00.001832000000,   1.12000,
,,,00.001834000000,   1.12000,
,,,00.001836000000,   1.12000,
,,,00.001838000000,   1.12000,
,,,00.001840000000,   1.12000,
,,,00.001842000000,   1.12000,
,,,00.001844000000,   1.04000,
,,,00.001846000000,   1.12000,
,,,00.001848000000,   1.12000,
,,,00.001850000000,   1.04000,
,,,00.001852000000,   1.04000,
,,,00.001854000000,   1.04000,
,,,00.001856000000,   1.04000,
,,,00.001858000000,   1.04000,
,,,00.001860000000,   1.04000,
,,,00.001862000000,   1.12000,
,,,00.001864000000,   1.12000,
,,,00.001866000000,   1.04000,
,,,00.001868000000,   1.04000,
,,,00.001870000000,   1.04000,
,,,00.001872000000,   1.12000,
,,,00.001874000000,   1.04000,
,,,00.001876000000,   1.04000,
,,,00.001878000000,   1.04000,
,,,00.001880000000,   1.04000,
,,,00.001882000000,   1.04000,
,,,00.001884000000,   1.04000,
,,,00.001886000000,   1.04000,
,,,00.001888000000,   1.04000,
,,,00.001890000000,   1.04000,
,,,00.001892000000,   1.04000,
,,,00.001894000000,   1.04000,
,,,00.001896000000,   1.12000,
,,,00.001898000000,   1.04000,
,,,00.001900000000,   1.04000,
,,,00.001902000000,   1.04000,
,,,00.001904000000,   1.04000,
,,,00.001906000000,   1.04000,
,,,00.001908000000,   1.04000,
,,,00.001910000000,   1.04000,
,,,00.001912000000,   1.04000,
,,,00.001914000000,   1.04000,
,,,00.001916000000,   1.04000,
,,,00.001918000000,   1.04000,
,,,00.001920000000,   1.04000,
,,,00.001922000000,   1.04000,
,,,00.001924000000,   1.04000,
,,,00.001926000000,   0.96000,
,,,00.001928000000,   1.04000,
,,,00.001930000000,   1.04000,
,,,00.001932000000,   1.04000,
,,,00.001934000000,   1.04000,
,,,00.001936000000,   0.96000,
,,,00.001938000000,   1.04000,
,,,00.001940000000,   1.04000,
,,,00.001942000000,   1.04000,
,,,00.001944000000,   1.04000,
,,,00.001946000000,   1.04000,
,,,00.001948000000,   1.04000,
,,,00.001950000000,   0.96000,
,,,00.001952000000,   1.04000,
,,,00.001954000000,   1.04000,
,,,00.001956000000,   1.04000,
,,,00.001958000000,   1.04000,
,,,00.001960000000,   1.04000,
,,,00.001962000000,   0.96000,
,,,00.001964000000,   1.04000,
,,,00.001966000000,   1.04000,
,,,00.001968000000,   1.04000,
,,,00.001970000000,   1.04000,
,,,00.001972000000,   0.96000,
,,,00.001974000000,   0.96000,
,,,00.001976000000,   0.96000,
,,,00.001978000000,   1.04000,
,,,00.001980000000,   1.04000,
,,,00.001982000000,   0.96000,
,,,00.001984000000,   0.96000,
,,,00.001986000000,   0.96000,
,,,00.001988000000,   0.96000,
,,,00.001990000000,   0.96000,
,,,00.001992000000,   0.96000,
,,,00.001994000000,   1.04000,
,,,00.001996000000,   1.04000,
,,,00.001998000000,   0.96000,
,,,00.002000000000,   0.96000,
,,,00.002002000000,   0.96000,
,,,00.002004000000,   0.96000,
,,,00.002006000000,   0.96000,
,,,00.002008000000,   0.96000,
,,,00.002010000000,   0.96000,
,,,00.002012000000,   0.96000,
,,,00.002014000000,   1.04000,
,,,00.002016000000,   0.96000,
,,,00.002018000000,   0.96000,
,,,00.002020000000,   0.96000,
,,,00.002022000000,   1.04000,
,,,00.002024000000,   0.96000,
,,,00.002026000000,   0.96000,
,,,00.002028000000,   0.96000,
,,,00.002030000000,   0.96000,
,,,00.002032000000,   0.96000,
,,,00.002034000000,   0.96000,
,,,00.002036000000,   0.96000,
,,,00.002038000000,   0.96000,
,,,00.002040000000,   0.96000,
,,,00.002042000000,   0.96000,
,,,00.002044000000,   0.96000,
,,,00.002046000000,   0.96000,
,,,00.002048000000,   0.96000,
,,,00.002050000000,   0.96000,
,,,00.002052000000,   0.96000,
,,,00.002054000000,   0.96000,
,,,00.002056000000,   0.96000,
,,,00.002058000000,   0.88000,
,,,00.002060000000,   0.96000,
,,,00.002062000000,   0.96000,
,,,00.002064000000,   0.96000,
,,,00.002066000000,   0.88000,
,,,00.002068000000,   0.88000,
,,,00.002070000000,   0.88000,
,,,00.002072000000,   0.88000,
,,,00.002074000000,   0.96000,
,,,00.002076000000,   0.88000,
,,,00.002078000000,   0.96000,
,,,00.002080000000,   0.88000,
,,,00.002082000000,   0.88000,
,,,00.002084000000,   0.88000,
,,,00.002086000000,   0.88000,
,,,00.002088000000,   0.88000,
,,,00.002090000000,   0.88000,
,,,00.002092000000,   0.88000,
,,,00.002094000000,   0.88000,
,,,00.002096000000,   0.88000,
,,,00.002098000000,   0.88000,
,,,00.002100000000,   0.88000,
,,,00.002102000000,   0.88000,
,,,00.002104000000,   0.88000,
,,,00.002106000000,   0.88000,
,,,00.002108000000,   0.88000,
,,,00.002110000000,   0.88000,
,,,00.002112000000,   0.88000,
,,,00.002114000000,   0.88000,
,,,00.002116000000,   0.88000,
,,,00.002118000000,   0.88000,
,,,00.002120000000,   0.88000,
,,,00.002122000000,   0.88000,
,,,00.002124000000,   0.88000,
,,,00.002126000000,   0.88000,
,,,00.002128000000,   0.88000,
,,,00.002130000000,   0.88000,
,,,00.002132000000,   0.88000,
,,,00.002134000000,   0.88000,
,,,00.002136000000,   0.88000,
,,,00.002138000000,   0.88000,
,,,00.002140000000,   0.88000,
,,,00.002142000000,   0.88000,
,,,00.002144000000,   0.88000,
,,,00.002146000000,   0.88000,
,,,00.002148000000,   0.88000,
,,,00.002150000000,   0.88000,
,,,00.002152000000,   0.88000,
,,,00.002154000000,   0.88000,
,,,00.002156000000,   0.88000,
,,,00.002158000000,   0.88000,
,,,00.002160000000,   0.88000,
,,,00.002162000000,   0.88000,
,,,00.002164000000,   0.88000,
,,,00.002166000000,   0.88000,
,,,00.002168000000,   0.88000,
,,,00.002170000000,   0.88000,
,,,00.002172000000,   0.88000,
,,,00.002174000000,   0.88000,
,,,00.002176000000,   0.88000,
,,,00.002178000000,   0.88000,
,,,00.002180000000,   0.88000,
,,,00.002182000000,   0.88000,
,,,00.002184000000,   0.88000,
,,,00.002186000000,   0.80000,
,,,00.002188000000,   0.88000,
,,,00.002190000000,   0.80000,
,,,00.002192000000,   0.88000,
,,,00.002194000000,   0.88000,
,,,00.002196000000,   0.88000,
,,,00.002198000000,   0.80000,
,,,00.002200000000,   0.88000,
,,,00.002202000000,   0.80000,
,,,00.002204000000,   0.88000,
,,,00.002206000000,   0.88000,
,,,00.002208000000,   0.80000,
,,,00.002210000000,   0.80000,
,,,00.002212000000,   0.80000,
,,,00.002214000000,   0.88000,
,,,00.002216000000,   0.80000,
,,,00.002218000000,   0.88000,
,,,00.002220000000,   0.88000,
,,,00.002222000000,   0.80000,
,,,00.002224000000,   0.88000,
,,,00.002226000000,   0.88000,
,,,00.002228000000,   0.88000,
,,,00.002230000000,   0.88000,
,,,00.002232000000,   0.80000,
,,,00.002234000000,   0.88000,
,,,00.002236000000,   0.88000,
,,,00.002238000000,   0.88000,
,,,00.002240000000,   0.88000,
,,,00.002242000000,   0.80000,
,,,00.002244000000,   0.80000,
,,,00.002246000000,   0.80000,
,,,00.002248000000,   0.80000,
,,,00.002250000000,   0.88000,
,,,00.002252000000,   0.80000,
,,,00.002254000000,   0.80000,
,,,00.002256000000,   0.80000,
,,,00.002258000000,   0.80000,
,,,00.002260000000,   0.80000,
,,,00.002262000000,   0.80000,
,,,00.002264000000,   0.80000,
,,,00.002266000000,   0.80000,
,,,00.002268000000,   0.80000,
,,,00.002270000000,   0.80000,
,,,00.002272000000,   0.88000,
,,,00.002274000000,   0.80000,
,,,00.002276000000,   0.80000,
,,,00.002278000000,   0.80000,
,,,00.002280000000,   0.80000,
,,,00.002282000000,   0.80000,
,,,00.002284000000,   0.88000,
,,,00.002286000000,   0.80000,
,,,00.002288000000,   0.80000,
,,,00.002290000000,   0.80000,
,,,00.002292000000,   0.80000,
,,,00.002294000000,   0.80000,
,,,00.002296000000,   0.80000,
,,,00.002298000000,   0.80000,
,,,00.002300000000,   0.80000,
,,,00.002302000000,   0.80000,
,,,00.002304000000,   0.80000,
,,,00.002306000000,   0.80000,
,,,00.002308000000,   0.80000,
,,,00.002310000000,   0.80000,
,,,00.002312000000,   0.80000,
,,,00.002314000000,   0.80000,
,,,00.002316000000,   0.72000,
,,,00.002318000000,   0.72000,
,,,00.002320000000,   0.80000,
,,,00.002322000000,   0.80000,
,,,00.002324000000,   0.80000,
,,,00.002326000000,   0.80000,
,,,00.002328000000,   0.72000,
,,,00.002330000000,   0.80000,
,,,00.002332000000,   0.80000,
,,,00.002334000000,   0.72000,
,,,00.002336000000,   0.80000,
,,,00.002338000000,   0.72000,
,,,00.002340000000,   0.80000,
,,,00.002342000000,   0.80000,
,,,00.002344000000,   0.72000,
,,,00.002346000000,   0.80000,
,,,00.002348000000,   0.72000,
,,,00.002350000000,   0.80000,
,,,00.002352000000,   0.72000,
,,,00.002354000000,   0.72000,
,,,00.002356000000,   0.72000,
,,,00.002358000000,   0.72000,
,,,00.002360000000,   0.72000,
,,,00.002362000000,   0.72000,
,,,00.002364000000,   0.72000,
,,,00.002366000000,   0.72000,
,,,00.002368000000,   0.72000,
,,,00.002370000000,   0.80000,
,,,00.002372000000,   0.80000,
,,,00.002374000000,   0.72000,
,,,00.002376000000,   0.80000,
,,,00.002378000000,   0.80000,
,,,00.002380000000,   0.72000,
,,,00.002382000000,   0.72000,
,,,00.002384000000,   0.72000,
,,,00.002386000000,   0.72000,
,,,00.002388000000,   0.80000,
,,,00.002390000000,   0.72000,
,,,00.002392000000,   0.72000,
,,,00.002394000000,   0.72000,
,,,00.002396000000,   0.72000,
,,,00.002398000000,   0.72000,
,,,00.002400000000,   0.80000,
,,,00.002402000000,   0.72000,
,,,00.002404000000,   0.72000,
,,,00.002406000000,   0.72000,
,,,00.002408000000,   0.72000,
,,,00.002410000000,   0.80000,
,,,00.002412000000,   0.72000,
,,,00.002414000000,   0.72000,
,,,00.002416000000,   0.72000,
,,,00.002418000000,   0.72000,
,,,00.002420000000,   0.72000,
,,,00.002422000000,   0.64000,
,,,00.002424000000,   0.72000,
,,,00.002426000000,   0.72000,
,,,00.002428000000,   0.72000,
,,,00.002430000000,   0.72000,
,,,00.002432000000,   0.72000,
,,,00.002434000000,   0.72000,
,,,00.002436000000,   0.72000,
,,,00.002438000000,   0.72000,
,,,00.002440000000,   0.72000,
,,,00.002442000000,   0.72000,
,,,00.002444000000,   0.72000,
,,,00.002446000000,   0.72000,
,,,00.002448000000,   0.72000,
,,,00.002450000000,   0.72000,
,,,00.002452000000,   0.72000,
,,,00.002454000000,   0.72000,
,,,00.002456000000,   0.72000,
,,,00.002458000000,   0.72000,
,,,00.002460000000,   0.72000,
,,,00.002462000000,   0.72000,
,,,00.002464000000,   0.72000,
,,,00.002466000000,   0.72000,
,,,00.002468000000,   0.72000,
,,,00.002470000000,   0.72000,
,,,00.002472000000,   0.72000,
,,,00.002474000000,   0.64000,
,,,00.002476000000,   0.64000,
,,,00.002478000000,   0.72000,
,,,00.002480000000,   0.72000,
,,,00.002482000000,   0.64000,
,,,00.002484000000,   0.64000,
,,,00.002486000000,   0.64000,
,,,00.002488000000,   0.72000,
,,,00.002490000000,   0.64000,
,,,00.002492000000,   0.72000,
,,,00.002494000000,   0.72000,
,,,00.002496000000,   0.72000,
,,,00.002498000000,   0.72000,
,,,00.002500000000,   0.64000,
,,,00.002502000000,   0.64000,
,,,00.002504000000,   0.72000,
,,,00.002506000000,   0.64000,
,,,00.002508000000,   0.72000,
,,,00.002510000000,   0.64000,
,,,00.002512000000,   0.72000,
,,,00.002514000000,   0.64000,
,,,00.002516000000,   0.72000,
,,,00.002518000000,   0.72000,
,,,00.002520000000,   0.72000,
,,,00.002522000000,   0.72000,
,,,00.002524000000,   0.64000,
,,,00.002526000000,   0.72000,
,,,00.002528000000,   0.64000,
,,,00.002530000000,   0.64000,
,,,00.002532000000,   0.72000,
,,,00.002534000000,   0.64000,
,,,00.002536000000,   0.64000,
,,,00.002538000000,   0.72000,
,,,00.002540000000,   0.72000,
,,,00.002542000000,   0.64000,
,,,00.002544000000,   0.64000,
,,,00.002546000000,   0.64000,
,,,00.002548000000,   0.72000,
,,,00.002550000000,   0.64000,
,,,00.002552000000,   0.64000,
,,,00.002554000000,   0.64000,
,,,00.002556000000,   0.64000,
,,,00.002558000000,   0.64000,
,,,00.002560000000,   0.64000,
,,,00.002562000000,   0.72000,
,,,00.002564000000,   0.64000,
,,,00.002566000000,   0.72000,
,,,00.002568000000,   0.64000,
,,,00.002570000000,   0.64000,
,,,00.002572000000,   0.64000,
,,,00.002574000000,   0.64000,
,,,00.002576000000,   0.64000,
,,,00.002578000000,   0.64000,
,,,00.002580000000,   0.64000,
,,,00.002582000000,   0.64000,
,,,00.002584000000,   0.64000,
,,,00.002586000000,   0.64000,
,,,00.002588000000,   0.64000,
,,,00.002590000000,   0.64000,
,,,00.002592000000,   0.64000,
,,,00.002594000000,   0.64000,
,,,00.002596000000,   0.64000,
,,,00.002598000000,   0.64000,
,,,00.002600000000,   0.64000,
,,,00.002602000000,   0.64000,
,,,00.002604000000,   0.64000,
,,,00.002606000000,   0.64000,
,,,00.002608000000,   0.64000,
,,,00.002610000000,   0.64000,
,,,00.002612000000,   0.64000,
,,,00.002614000000,   0.64000,
,,,00.002616000000,   0.64000,
,,,00.002618000000,   0.64000,
,,,00.002620000000,   0.64000,
,,,00.002622000000,   0.64000,
,,,00.002624000000,   0.64000,
,,,00.002626000000,   0.64000,
,,,00.002628000000,   0.64000,
,,,00.002630000000,   0.64000,
,,,00.002632000000,   0.56000,
,,,00.002634000000,   0.56000,
,,,00.002636000000,   0.64000,
,,,00.002638000000,   0.64000,
,,,00.002640000000,   0.64000,
,,,00.002642000000,   0.64000,
,,,00.002644000000,   0.56000,
,,,00.002646000000,   0.64000,
,,,00.002648000000,   0.64000,
,,,00.002650000000,   0.64000,
,,,00.002652000000,   0.64000,
,,,00.002654000000,   0.64000,
,,,00.002656000000,   0.64000,
,,,00.002658000000,   0.64000,
,,,00.002660000000,   0.64000,
,,,00.002662000000,   0.64000,
,,,00.002664000000,   0.56000,
,,,00.002666000000,   0.64000,
,,,00.002668000000,   0.56000,
,,,00.002670000000,   0.64000,
,,,00.002672000000,   0.56000,
,,,00.002674000000,   0.64000,
,,,00.002676000000,   0.56000,
,,,00.002678000000,   0.64000,
,,,00.002680000000,   0.64000,
,,,00.002682000000,   0.56000,
,,,00.002684000000,   0.56000,
,,,00.002686000000,   0.64000,
,,,00.002688000000,   0.56000,
,,,00.002690000000,   0.64000,
,,,00.002692000000,   0.64000,
,,,00.002694000000,   0.56000,
,,,00.002696000000,   0.56000,
,,,00.002698000000,   0.56000,
,,,00.002700000000,   0.56000,
,,,00.002702000000,   0.56000,
,,,00.002704000000,   0.64000,
,,,00.002706000000,   0.64000,
,,,00.002708000000,   0.56000,
,,,00.002710000000,   0.56000,
,,,00.002712000000,   0.56000,
,,,00.002714000000,   0.56000,
,,,00.002716000000,   0.56000,
,,,00.002718000000,   0.56000,
,,,00.002720000000,   0.64000,
,,,00.002722000000,   0.64000,
,,,00.002724000000,   0.56000,
,,,00.002726000000,   0.56000,
,,,00.002728000000,   0.56000,
,,,00.002730000000,   0.56000,
,,,00.002732000000,   0.56000,
,,,00.002734000000,   0.64000,
,,,00.002736000000,   0.56000,
,,,00.002738000000,   0.56000,
,,,00.002740000000,   0.64000,
,,,00.002742000000,   0.56000,
,,,00.002744000000,   0.56000,
,,,00.002746000000,   0.56000,
,,,00.002748000000,   0.56000,
,,,00.002750000000,   0.56000,
,,,00.002752000000,   0.56000,
,,,00.002754000000,   0.56000,
,,,00.002756000000,   0.56000,
,,,00.002758000000,   0.64000,
,,,00.002760000000,   0.56000,
,,,00.002762000000,   0.56000,
,,,00.002764000000,   0.56000,
,,,00.002766000000,   0.56000,
,,,00.002768000000,   0.56000,
,,,00.002770000000,   0.56000,
,,,00.002772000000,   0.56000,
,,,00.002774000000,   0.48000,
,,,00.002776000000,   0.56000,
,,,00.002778000000,   0.56000,
,,,00.002780000000,   0.56000,
,,,00.002782000000,   0.56000,
,,,00.002784000000,   0.56000,
,,,00.002786000000,   0.64000,
,,,00.002788000000,   0.48000,
,,,00.002790000000,   0.48000,
,,,00.002792000000,   0.56000,
,,,00.002794000000,   0.56000,
,,,00.002796000000,   0.56000,
,,,00.002798000000,   0.56000,
,,,00.002800000000,   0.56000,
,,,00.002802000000,   0.56000,
,,,00.002804000000,   0.56000,
,,,00.002806000000,   0.56000,
,,,00.002808000000,   0.56000,
,,,00.002810000000,   0.56000,
,,,00.002812000000,   0.56000,
,,,00.002814000000,   0.56000,
,,,00.002816000000,   0.56000,
,,,00.002818000000,   0.56000,
,,,00.002820000000,   0.48000,
,,,00.002822000000,   0.56000,
,,,00.002824000000,   0.56000,
,,,00.002826000000,   0.56000,
,,,00.002828000000,   0.56000,
,,,00.002830000000,   0.48000,
,,,00.002832000000,   0.48000,
,,,00.002834000000,   0.56000,
,,,00.002836000000,   0.48000,
,,,00.002838000000,   0.56000,
,,,00.002840000000,   0.48000,
,,,00.002842000000,   0.48000,
,,,00.002844000000,   0.48000,
,,,00.002846000000,   0.56000,
,,,00.002848000000,   0.48000,
,,,00.002850000000,   0.48000,
,,,00.002852000000,   0.56000,
,,,00.002854000000,   0.56000,
,,,00.002856000000,   0.48000,
,,,00.002858000000,   0.56000,
,,,00.002860000000,   0.56000,
,,,00.002862000000,   0.48000,
,,,00.002864000000,   0.56000,
,,,00.002866000000,   0.48000,
,,,00.002868000000,   0.56000,
,,,00.002870000000,   0.48000,
,,,00.002872000000,   0.48000,
,,,00.002874000000,   0.56000,
,,,00.002876000000,   0.48000,
,,,00.002878000000,   0.48000,
,,,00.002880000000,   0.56000,
,,,00.002882000000,   0.48000,
,,,00.002884000000,   0.56000,
,,,00.002886000000,   0.48000,
,,,00.002888000000,   0.56000,
,,,00.002890000000,   0.56000,
,,,00.002892000000,   0.48000,
,,,00.002894000000,   0.48000,
,,,00.002896000000,   0.56000,
,,,00.002898000000,   0.56000,
,,,00.002900000000,   0.48000,
,,,00.002902000000,   0.48000,
,,,00.002904000000,   0.56000,
,,,00.002906000000,   0.48000,
,,,00.002908000000,   0.48000,
,,,00.002910000000,   0.48000,
,,,00.002912000000,   0.48000,
,,,00.002914000000,   0.56000,
,,,00.002916000000,   0.48000,
,,,00.002918000000,   0.48000,
,,,00.002920000000,   0.48000,
,,,00.002922000000,   0.56000,
,,,00.002924000000,   0.48000,
,,,00.002926000000,   0.48000,
,,,00.002928000000,   0.48000,
,,,00.002930000000,   0.48000,
,,,00.002932000000,   0.56000,
,,,00.002934000000,   0.48000,
,,,00.002936000000,   0.48000,
,,,00.002938000000,   0.48000,
,,,00.002940000000,   0.56000,
,,,00.002942000000,   0.48000,
,,,00.002944000000,   0.48000,
,,,00.002946000000,   0.48000,
,,,00.002948000000,   0.48000,
,,,00.002950000000,   0.48000,
,,,00.002952000000,   0.48000,
,,,00.002954000000,   0.48000,
,,,00.002956000000,   0.48000,
,,,00.002958000000,   0.48000,
,,,00.002960000000,   0.48000,
,,,00.002962000000,   0.48000,
,,,00.002964000000,   0.48000,
,,,00.002966000000,   0.48000,
,,,00.002968000000,   0.48000,
,,,00.002970000000,   0.48000,
,,,00.002972000000,   0.48000,
,,,00.002974000000,   0.48000,
,,,00.002976000000,   0.48000,
,,,00.002978000000,   0.48000,
,,,00.002980000000,   0.48000,
,,,00.002982000000,   0.48000,
,,,00.002984000000,   0.48000,
,,,00.002986000000,   0.48000,
,,,00.002988000000,   0.48000,
,,,00.002990000000,   0.40000,
,,,00.002992000000,   0.48000,
,,,00.002994000000,   0.48000,
,,,00.002996000000,   0.48000,
,,,00.002998000000,   0.48000,
,,,00.003000000000,   0.48000,
,,,00.003002000000,   0.48000,
,,,00.003004000000,   0.48000,
,,,00.003006000000,   0.48000,
,,,00.003008000000,   0.48000,
,,,00.003010000000,   0.48000,
,,,00.003012000000,   0.48000,
,,,00.003014000000,   0.48000,
,,,00.003016000000,   0.48000,
,,,00.003018000000,   0.48000,
,,,00.003020000000,   0.48000,
,,,00.003022000000,   0.48000,
,,,00.003024000000,   0.48000,
,,,00.003026000000,   0.40000,
,,,00.003028000000,   0.48000,
,,,00.003030000000,   0.48000,
,,,00.003032000000,   0.48000,
,,,00.003034000000,   0.48000,
,,,00.003036000000,   0.48000,
,,,00.003038000000,   0.48000,
,,,00.003040000000,   0.48000,
,,,00.003042000000,   0.48000,
,,,00.003044000000,   0.48000,
,,,00.003046000000,   0.48000,
,,,00.003048000000,   0.48000,
,,,00.003050000000,   0.40000,
,,,00.003052000000,   0.48000,
,,,00.003054000000,   0.48000,
,,,00.003056000000,   0.40000,
,,,00.003058000000,   0.48000,
,,,00.003060000000,   0.40000,
,,,00.003062000000,   0.48000,
,,,00.003064000000,   0.40000,
,,,00.003066000000,   0.48000,
,,,00.003068000000,   0.40000,
,,,00.003070000000,   0.48000,
,,,00.003072000000,   0.48000,
,,,00.003074000000,   0.40000,
,,,00.003076000000,   0.48000,
,,,00.003078000000,   0.40000,
,,,00.003080000000,   0.48000,
,,,00.003082000000,   0.40000,
,,,00.003084000000,   0.48000,
,,,00.003086000000,   0.48000,
,,,00.003088000000,   0.48000,
,,,00.003090000000,   0.40000,
,,,00.003092000000,   0.48000,
,,,00.003094000000,   0.48000,
,,,00.003096000000,   0.40000,
,,,00.003098000000,   0.48000,
,,,00.003100000000,   0.48000,
,,,00.003102000000,   0.48000,
,,,00.003104000000,   0.40000,
,,,00.003106000000,   0.48000,
,,,00.003108000000,   0.48000,
,,,00.003110000000,   0.48000,
,,,00.003112000000,   0.48000,
,,,00.003114000000,   0.40000,
,,,00.003116000000,   0.40000,
,,,00.003118000000,   0.40000,
,,,00.003120000000,   0.48000,
,,,00.003122000000,   0.48000,
,,,00.003124000000,   0.48000,
,,,00.003126000000,   0.40000,
,,,00.003128000000,   0.48000,
,,,00.003130000000,   0.48000,
,,,00.003132000000,   0.40000,
,,,00.003134000000,   0.40000,
,,,00.003136000000,   0.40000,
,,,00.003138000000,   0.40000,
,,,00.003140000000,   0.40000,
,,,00.003142000000,   0.40000,
,,,00.003144000000,   0.40000,
,,,00.003146000000,   0.40000,
,,,00.003148000000,   0.40000,
,,,00.003150000000,   0.40000,
,,,00.003152000000,   0.40000,
,,,00.003154000000,   0.40000,
,,,00.003156000000,   0.40000,
,,,00.003158000000,   0.40000,
,,,00.003160000000,   0.48000,
,,,00.003162000000,   0.48000,
,,,00.003164000000,   0.40000,
,,,00.003166000000,   0.48000,
,,,00.003168000000,   0.40000,
,,,00.003170000000,   0.40000,
,,,00.003172000000,   0.48000,
,,,00.003174000000,   0.40000,
,,,00.003176000000,   0.40000,
,,,00.003178000000,   0.48000,
,,,00.003180000000,   0.40000,
,,,00.003182000000,   0.40000,
,,,00.003184000000,   0.40000,
,,,00.003186000000,   0.40000,
,,,00.003188000000,   0.40000,
,,,00.003190000000,   0.48000,
,,,00.003192000000,   0.40000,
,,,00.003194000000,   0.40000,
,,,00.003196000000,   0.40000,
,,,00.003198000000,   0.40000,
,,,00.003200000000,   0.40000,
,,,00.003202000000,   0.48000,
,,,00.003204000000,   0.40000,
,,,00.003206000000,   0.40000,
,,,00.003208000000,   0.40000,
,,,00.003210000000,   0.40000,
,,,00.003212000000,   0.40000,
,,,00.003214000000,   0.40000,
,,,00.003216000000,   0.40000,
,,,00.003218000000,   0.40000,
,,,00.003220000000,   0.40000,
,,,00.003222000000,   0.40000,
,,,00.003224000000,   0.48000,
,,,00.003226000000,   0.40000,
,,,00.003228000000,   0.40000,
,,,00.003230000000,   0.40000,
,,,00.003232000000,   0.40000,
,,,00.003234000000,   0.32000,
,,,00.003236000000,   0.40000,
,,,00.003238000000,   0.40000,
,,,00.003240000000,   0.48000,
,,,00.003242000000,   0.40000,
,,,00.003244000000,   0.32000,
,,,00.003246000000,   0.48000,
,,,00.003248000000,   0.40000,
,,,00.003250000000,   0.40000,
,,,00.003252000000,   0.40000,
,,,00.003254000000,   0.40000,
,,,00.003256000000,   0.40000,
,,,00.003258000000,   0.40000,
,,,00.003260000000,   0.40000,
,,,00.003262000000,   0.40000,
,,,00.003264000000,   0.40000,
,,,00.003266000000,   0.32000,
,,,00.003268000000,   0.32000,
,,,00.003270000000,   0.40000,
,,,00.003272000000,   0.40000,
,,,00.003274000000,   0.40000,
,,,00.003276000000,   0.40000,
,,,00.003278000000,   0.40000,
,,,00.003280000000,   0.40000,
,,,00.003282000000,   0.40000,
,,,00.003284000000,   0.40000,
,,,00.003286000000,   0.40000,
,,,00.003288000000,   0.40000,
,,,00.003290000000,   0.40000,
,,,00.003292000000,   0.32000,
,,,00.003294000000,   0.32000,
,,,00.003296000000,   0.40000,
,,,00.003298000000,   0.40000,
,,,00.003300000000,   0.32000,
,,,00.003302000000,   0.40000,
,,,00.003304000000,   0.40000,
,,,00.003306000000,   0.40000,
,,,00.003308000000,   0.40000,
,,,00.003310000000,   0.32000,
,,,00.003312000000,   0.40000,
,,,00.003314000000,   0.32000,
,,,00.003316000000,   0.40000,
,,,00.003318000000,   0.40000,
,,,00.003320000000,   0.40000,
,,,00.003322000000,   0.40000,
,,,00.003324000000,   0.40000,
,,,00.003326000000,   0.32000,
,,,00.003328000000,   0.40000,
,,,00.003330000000,   0.32000,
,,,00.003332000000,   0.32000,
,,,00.003334000000,   0.32000,
,,,00.003336000000,   0.40000,
,,,00.003338000000,   0.32000,
,,,00.003340000000,   0.40000,
,,,00.003342000000,   0.40000,
,,,00.003344000000,   0.40000,
,,,00.003346000000,   0.40000,
,,,00.003348000000,   0.40000,
,,,00.003350000000,   0.32000,
,,,00.003352000000,   0.40000,
,,,00.003354000000,   0.40000,
,,,00.003356000000,   0.40000,
,,,00.003358000000,   0.32000,
,,,00.003360000000,   0.32000,
,,,00.003362000000,   0.32000,
,,,00.003364000000,   0.32000,
,,,00.003366000000,   0.40000,
,,,00.003368000000,   0.32000,
,,,00.003370000000,   0.40000,
,,,00.003372000000,   0.40000,
,,,00.003374000000,   0.40000,
,,,00.003376000000,   0.40000,
,,,00.003378000000,   0.40000,
,,,00.003380000000,   0.40000,
,,,00.003382000000,   0.40000,
,,,00.003384000000,   0.32000,
,,,00.003386000000,   0.32000,
,,,00.003388000000,   0.40000,
,,,00.003390000000,   0.32000,
,,,00.003392000000,   0.32000,
,,,00.003394000000,   0.32000,
,,,00.003396000000,   0.32000,
,,,00.003398000000,   0.40000,
,,,00.003400000000,   0.40000,
,,,00.003402000000,   0.32000,
,,,00.003404000000,   0.32000,
,,,00.003406000000,   0.40000,
,,,00.003408000000,   0.32000,
,,,00.003410000000,   0.32000,
,,,00.003412000000,   0.32000,
,,,00.003414000000,   0.40000,
,,,00.003416000000,   0.40000,
,,,00.003418000000,   0.32000,
,,,00.003420000000,   0.32000,
,,,00.003422000000,   0.32000,
,,,00.003424000000,   0.32000,
,,,00.003426000000,   0.32000,
,,,00.003428000000,   0.40000,
,,,00.003430000000,   0.32000,
,,,00.003432000000,   0.32000,
,,,00.003434000000,   0.32000,
,,,00.003436000000,   0.40000,
,,,00.003438000000,   0.40000,
,,,00.003440000000,   0.40000,
,,,00.003442000000,   0.32000,
,,,00.003444000000,   0.32000,
,,,00.003446000000,   0.32000,
,,,00.003448000000,   0.32000,
,,,00.003450000000,   0.32000,
,,,00.003452000000,   0.32000,
,,,00.003454000000,   0.32000,
,,,00.003456000000,   0.32000,
,,,00.003458000000,   0.32000,
,,,00.003460000000,   0.32000,
,,,00.003462000000,   0.40000,
,,,00.003464000000,   0.32000,
,,,00.003466000000,   0.32000,
,,,00.003468000000,   0.32000,
,,,00.003470000000,   0.40000,
,,,00.003472000000,   0.40000,
,,,00.003474000000,   0.32000,
,,,00.003476000000,   0.32000,
,,,00.003478000000,   0.32000,
,,,00.003480000000,   0.32000,
,,,00.003482000000,   0.40000,
,,,00.003484000000,   0.32000,
,,,00.003486000000,   0.32000,
,,,00.003488000000,   0.32000,
,,,00.003490000000,   0.32000,
,,,00.003492000000,   0.32000,
,,,00.003494000000,   0.32000,
,,,00.003496000000,   0.40000,
,,,00.003498000000,   0.32000,
,,,00.003500000000,   0.32000,
,,,00.003502000000,   0.40000,
,,,00.003504000000,   0.32000,
,,,00.003506000000,   0.32000,
,,,00.003508000000,   0.32000,
,,,00.003510000000,   0.32000,
,,,00.003512000000,   0.32000,
,,,00.003514000000,   0.32000,
,,,00.003516000000,   0.32000,
,,,00.003518000000,   0.32000,
,,,00.003520000000,   0.40000,
,,,00.003522000000,   0.32000,
,,,00.003524000000,   0.32000,
,,,00.003526000000,   0.32000,
,,,00.003528000000,   0.32000,
,,,00.003530000000,   0.32000,
,,,00.003532000000,   0.32000,
,,,00.003534000000,   0.40000,
,,,00.003536000000,   0.32000,
,,,00.003538000000,   0.32000,
,,,00.003540000000,   0.32000,
,,,00.003542000000,   0.32000,
,,,00.003544000000,   0.32000,
,,,00.003546000000,   0.32000,
,,,00.003548000000,   0.32000,
,,,00.003550000000,   0.32000,
,,,00.003552000000,   0.32000,
,,,00.003554000000,   0.32000,
,,,00.003556000000,   0.32000,
,,,00.003558000000,   0.32000,
,,,00.003560000000,   0.32000,
,,,00.003562000000,   0.32000,
,,,00.003564000000,   0.32000,
,,,00.003566000000,   0.32000,
,,,00.003568000000,   0.32000,
,,,00.003570000000,   0.32000,
,,,00.003572000000,   0.32000,
,,,00.003574000000,   0.32000,
,,,00.003576000000,   0.32000,
,,,00.003578000000,   0.32000,
,,,00.003580000000,   0.32000,
,,,00.003582000000,   0.32000,
,,,00.003584000000,   0.32000,
,,,00.003586000000,   0.32000,
,,,00.003588000000,   0.32000,
,,,00.003590000000,   0.32000,
,,,00.003592000000,   0.32000,
,,,00.003594000000,   0.32000,
,,,00.003596000000,   0.32000,
,,,00.003598000000,   0.32000,
,,,00.003600000000,   0.24000,
,,,00.003602000000,   0.32000,
,,,00.003604000000,   0.32000,
,,,00.003606000000,   0.32000,
,,,00.003608000000,   0.32000,
,,,00.003610000000,   0.32000,
,,,00.003612000000,   0.32000,
,,,00.003614000000,   0.32000,
,,,00.003616000000,   0.32000,
,,,00.003618000000,   0.32000,
,,,00.003620000000,   0.24000,
,,,00.003622000000,   0.32000,
,,,00.003624000000,   0.32000,
,,,00.003626000000,   0.32000,
,,,00.003628000000,   0.32000,
,,,00.003630000000,   0.32000,
,,,00.003632000000,   0.32000,
,,,00.003634000000,   0.32000,
,,,00.003636000000,   0.32000,
,,,00.003638000000,   0.32000,
,,,00.003640000000,   0.24000,
,,,00.003642000000,   0.32000,
,,,00.003644000000,   0.32000,
,,,00.003646000000,   0.24000,
,,,00.003648000000,   0.32000,
,,,00.003650000000,   0.32000,
,,,00.003652000000,   0.32000,
,,,00.003654000000,   0.32000,
,,,00.003656000000,   0.32000,
,,,00.003658000000,   0.32000,
,,,00.003660000000,   0.32000,
,,,00.003662000000,   0.32000,
,,,00.003664000000,   0.32000,
,,,00.003666000000,   0.32000,
,,,00.003668000000,   0.32000,
,,,00.003670000000,   0.32000,
,,,00.003672000000,   0.32000,
,,,00.003674000000,   0.32000,
,,,00.003676000000,   0.32000,
,,,00.003678000000,   0.32000,
,,,00.003680000000,   0.32000,
,,,00.003682000000,   0.32000,
,,,00.003684000000,   0.32000,
,,,00.003686000000,   0.32000,
,,,00.003688000000,   0.32000,
,,,00.003690000000,   0.32000,
,,,00.003692000000,   0.32000,
,,,00.003694000000,   0.24000,
,,,00.003696000000,   0.32000,
,,,00.003698000000,   0.32000,
,,,00.003700000000,   0.32000,
,,,00.003702000000,   0.32000,
,,,00.003704000000,   0.32000,
,,,00.003706000000,   0.32000,
,,,00.003708000000,   0.32000,
,,,00.003710000000,   0.24000,
,,,00.003712000000,   0.24000,
,,,00.003714000000,   0.32000,
,,,00.003716000000,   0.32000,
,,,00.003718000000,   0.32000,
,,,00.003720000000,   0.32000,
,,,00.003722000000,   0.32000,
,,,00.003724000000,   0.32000,
,,,00.003726000000,   0.32000,
,,,00.003728000000,   0.32000,
,,,00.003730000000,   0.32000,
,,,00.003732000000,   0.32000,
,,,00.003734000000,   0.32000,
,,,00.003736000000,   0.32000,
,,,00.003738000000,   0.32000,
,,,00.003740000000,   0.32000,
,,,00.003742000000,   0.32000,
,,,00.003744000000,   0.32000,
,,,00.003746000000,   0.32000,
,,,00.003748000000,   0.32000,
,,,00.003750000000,   0.32000,
,,,00.003752000000,   0.32000,
,,,00.003754000000,   0.24000,
,,,00.003756000000,   0.32000,
,,,00.003758000000,   0.24000,
,,,00.003760000000,   0.24000,
,,,00.003762000000,   0.32000,
,,,00.003764000000,   0.32000,
,,,00.003766000000,   0.32000,
,,,00.003768000000,   0.24000,
,,,00.003770000000,   0.32000,
,,,00.003772000000,   0.24000,
,,,00.003774000000,   0.32000,
,,,00.003776000000,   0.32000,
,,,00.003778000000,   0.32000,
,,,00.003780000000,   0.32000,
,,,00.003782000000,   0.24000,
,,,00.003784000000,   0.24000,
,,,00.003786000000,   0.32000,
,,,00.003788000000,   0.32000,
,,,00.003790000000,   0.24000,
,,,00.003792000000,   0.32000,
,,,00.003794000000,   0.32000,
,,,00.003796000000,   0.24000,
,,,00.003798000000,   0.32000,
,,,00.003800000000,   0.32000,
,,,00.003802000000,   0.24000,
,,,00.003804000000,   0.24000,
,,,00.003806000000,   0.32000,
,,,00.003808000000,   0.24000,
,,,00.003810000000,   0.32000,
,,,00.003812000000,   0.32000,
,,,00.003814000000,   0.24000,
,,,00.003816000000,   0.24000,
,,,00.003818000000,   0.24000,
,,,00.003820000000,   0.32000,
,,,00.003822000000,   0.24000,
,,,00.003824000000,   0.24000,
,,,00.003826000000,   0.24000,
,,,00.003828000000,   0.32000,
,,,00.003830000000,   0.24000,
,,,00.003832000000,   0.32000,
,,,00.003834000000,   0.24000,
,,,00.003836000000,   0.24000,
,,,00.003838000000,   0.24000,
,,,00.003840000000,   0.24000,
,,,00.003842000000,   0.24000,
,,,00.003844000000,   0.24000,
,,,00.003846000000,   0.32000,
,,,00.003848000000,   0.24000,
,,,00.003850000000,   0.24000,
,,,00.003852000000,   0.24000,
,,,00.003854000000,   0.24000,
,,,00.003856000000,   0.24000,
,,,00.003858000000,   0.24000,
,,,00.003860000000,   0.24000,
,,,00.003862000000,   0.24000,
,,,00.003864000000,   0.24000,
,,,00.003866000000,   0.24000,
,,,00.003868000000,   0.32000,
,,,00.003870000000,   0.32000,
,,,00.003872000000,   0.32000,
,,,00.003874000000,   0.32000,
,,,00.003876000000,   0.24000,
,,,00.003878000000,   0.32000,
,,,00.003880000000,   0.32000,
,,,00.003882000000,   0.32000,
,,,00.003884000000,   0.24000,
,,,00.003886000000,   0.32000,
,,,00.003888000000,   0.24000,
,,,00.003890000000,   0.24000,
,,,00.003892000000,   0.32000,
,,,00.003894000000,   0.32000,
,,,00.003896000000,   0.24000,
,,,00.003898000000,   0.24000,
,,,00.003900000000,   0.24000,
,,,00.003902000000,   0.24000,
,,,00.003904000000,   0.24000,
,,,00.003906000000,   0.32000,
,,,00.003908000000,   0.24000,
,,,00.003910000000,   0.32000,
,,,00.003912000000,   0.32000,
,,,00.003914000000,   0.32000,
,,,00.003916000000,   0.24000,
,,,00.003918000000,   0.24000,
,,,00.003920000000,   0.32000,
,,,00.003922000000,   0.24000,
,,,00.003924000000,   0.24000,
,,,00.003926000000,   0.24000,
,,,00.003928000000,   0.24000,
,,,00.003930000000,   0.24000,
,,,00.003932000000,   0.24000,
,,,00.003934000000,   0.24000,
,,,00.003936000000,   0.32000,
,,,00.003938000000,   0.24000,
,,,00.003940000000,   0.24000,
,,,00.003942000000,   0.24000,
,,,00.003944000000,   0.24000,
,,,00.003946000000,   0.32000,
,,,00.003948000000,   0.32000,
,,,00.003950000000,   0.24000,
,,,00.003952000000,   0.24000,
,,,00.003954000000,   0.24000,
,,,00.003956000000,   0.24000,
,,,00.003958000000,   0.24000,
,,,00.003960000000,   0.24000,
,,,00.003962000000,   0.32000,
,,,00.003964000000,   0.24000,
,,,00.003966000000,   0.24000,
,,,00.003968000000,   0.24000,
,,,00.003970000000,   0.24000,
,,,00.003972000000,   0.24000,
,,,00.003974000000,   0.32000,
,,,00.003976000000,   0.24000,
,,,00.003978000000,   0.24000,
,,,00.003980000000,   0.24000,
,,,00.003982000000,   0.24000,
,,,00.003984000000,   0.32000,
,,,00.003986000000,   0.24000,
,,,00.003988000000,   0.24000,
,,,00.003990000000,   0.24000,
,,,00.003992000000,   0.32000,
,,,00.003994000000,   0.24000,
,,,00.003996000000,   0.24000,
,,,00.003998000000,   0.24000,
,,,00.004000000000,   0.24000,
,,,00.004002000000,   0.24000,
,,,00.004004000000,   0.24000,
,,,00.004006000000,   0.32000,
,,,00.004008000000,   0.24000,
,,,00.004010000000,   0.24000,
,,,00.004012000000,   0.24000,
,,,00.004014000000,   0.24000,
,,,00.004016000000,   0.24000,
,,,00.004018000000,   0.24000,
,,,00.004020000000,   0.24000,
,,,00.004022000000,   0.24000,
,,,00.004024000000,   0.24000,
,,,00.004026000000,   0.24000,
,,,00.004028000000,   0.24000,
,,,00.004030000000,   0.24000,
,,,00.004032000000,   0.24000,
,,,00.004034000000,   0.24000,
,,,00.004036000000,   0.24000,
,,,00.004038000000,   0.24000,
,,,00.004040000000,   0.24000,
,,,00.004042000000,   0.24000,
,,,00.004044000000,   0.24000,
,,,00.004046000000,   0.24000,
,,,00.004048000000,   0.24000,
,,,00.004050000000,   0.24000,
,,,00.004052000000,   0.32000,
,,,00.004054000000,   0.24000,
,,,00.004056000000,   0.24000,
,,,00.004058000000,   0.24000,
,,,00.004060000000,   0.24000,
,,,00.004062000000,   0.24000,
,,,00.004064000000,   0.24000,
,,,00.004066000000,   0.24000,
,,,00.004068000000,   0.24000,
,,,00.004070000000,   0.24000,
,,,00.004072000000,   0.32000,
,,,00.004074000000,   0.24000,
,,,00.004076000000,   0.16000,
,,,00.004078000000,   0.24000,
,,,00.004080000000,   0.24000,
,,,00.004082000000,   0.24000,
,,,00.004084000000,   0.24000,
,,,00.004086000000,   0.24000,
,,,00.004088000000,   0.24000,
,,,00.004090000000,   0.24000,
,,,00.004092000000,   0.24000,
,,,00.004094000000,   0.24000,
,,,00.004096000000,   0.24000,
,,,00.004098000000,   0.24000,
,,,00.004100000000,   0.24000,
,,,00.004102000000,   0.24000,
,,,00.004104000000,   0.24000,
,,,00.004106000000,   0.24000,
,,,00.004108000000,   0.24000,
,,,00.004110000000,   0.24000,
,,,00.004112000000,   0.24000,
,,,00.004114000000,   0.24000,
,,,00.004116000000,   0.24000,
,,,00.004118000000,   0.24000,
,,,00.004120000000,   0.16000,
,,,00.004122000000,   0.24000,
,,,00.004124000000,   0.24000,
,,,00.004126000000,   0.24000,
,,,00.004128000000,   0.24000,
,,,00.004130000000,   0.24000,
,,,00.004132000000,   0.24000,
,,,00.004134000000,   0.24000,
,,,00.004136000000,   0.24000,
,,,00.004138000000,   0.24000,
,,,00.004140000000,   0.24000,
,,,00.004142000000,   0.24000,
,,,00.004144000000,   0.24000,
,,,00.004146000000,   0.24000,
,,,00.004148000000,   0.24000,
,,,00.004150000000,   0.16000,
,,,00.004152000000,   0.24000,
,,,00.004154000000,   0.24000,
,,,00.004156000000,   0.24000,
,,,00.004158000000,   0.24000,
,,,00.004160000000,   0.24000,
,,,00.004162000000,   0.24000,
,,,00.004164000000,   0.24000,
,,,00.004166000000,   0.24000,
,,,00.004168000000,   0.24000,
,,,00.004170000000,   0.24000,
,,,00.004172000000,   0.24000,
,,,00.004174000000,   0.24000,
,,,00.004176000000,   0.24000,
,,,00.004178000000,   0.24000,
,,,00.004180000000,   0.24000,
,,,00.004182000000,   0.24000,
,,,00.004184000000,   0.24000,
,,,00.004186000000,   0.24000,
,,,00.004188000000,   0.24000,
,,,00.004190000000,   0.16000,
,,,00.004192000000,   0.24000,
,,,00.004194000000,   0.24000,
,,,00.004196000000,   0.16000,
,,,00.004198000000,   0.24000,
,,,00.004200000000,   0.24000,
,,,00.004202000000,   0.24000,
,,,00.004204000000,   0.24000,
,,,00.004206000000,   0.24000,
,,,00.004208000000,   0.24000,
,,,00.004210000000,   0.24000,
,,,00.004212000000,   0.24000,
,,,00.004214000000,   0.24000,
,,,00.004216000000,   0.24000,
,,,00.004218000000,   0.24000,
,,,00.004220000000,   0.24000,
,,,00.004222000000,   0.24000,
,,,00.004224000000,   0.24000,
,,,00.004226000000,   0.24000,
,,,00.004228000000,   0.24000,
,,,00.004230000000,   0.24000,
,,,00.004232000000,   0.24000,
,,,00.004234000000,   0.16000,
,,,00.004236000000,   0.24000,
,,,00.004238000000,   0.24000,
,,,00.004240000000,   0.24000,
,,,00.004242000000,   0.24000,
,,,00.004244000000,   0.24000,
,,,00.004246000000,   0.24000,
,,,00.004248000000,   0.24000,
,,,00.004250000000,   0.24000,
,,,00.004252000000,   0.16000,
,,,00.004254000000,   0.24000,
,,,00.004256000000,   0.24000,
,,,00.004258000000,   0.24000,
,,,00.004260000000,   0.16000,
,,,00.004262000000,   0.24000,
,,,00.004264000000,   0.24000,
,,,00.004266000000,   0.24000,
,,,00.004268000000,   0.24000,
,,,00.004270000000,   0.24000,
,,,00.004272000000,   0.24000,
,,,00.004274000000,   0.24000,
,,,00.004276000000,   0.24000,
,,,00.004278000000,   0.24000,
,,,00.004280000000,   0.24000,
,,,00.004282000000,   0.24000,
,,,00.004284000000,   0.16000,
,,,00.004286000000,   0.24000,
,,,00.004288000000,   0.24000,
,,,00.004290000000,   0.24000,
,,,00.004292000000,   0.24000,
,,,00.004294000000,   0.16000,
,,,00.004296000000,   0.24000,
,,,00.004298000000,   0.24000,
,,,00.004300000000,   0.24000,
,,,00.004302000000,   0.24000,
,,,00.004304000000,   0.16000,
,,,00.004306000000,   0.16000,
,,,00.004308000000,   0.24000,
,,,00.004310000000,   0.24000,
,,,00.004312000000,   0.24000,
,,,00.004314000000,   0.16000,
,,,00.004316000000,   0.24000,
,,,00.004318000000,   0.24000,
,,,00.004320000000,   0.24000,
,,,00.004322000000,   0.24000,
,,,00.004324000000,   0.24000,
,,,00.004326000000,   0.24000,
,,,00.004328000000,   0.24000,
,,,00.004330000000,   0.24000,
,,,00.004332000000,   0.24000,
,,,00.004334000000,   0.24000,
,,,00.004336000000,   0.24000,
,,,00.004338000000,   0.16000,
,,,00.004340000000,   0.16000,
,,,00.004342000000,   0.16000,
,,,00.004344000000,   0.16000,
,,,00.004346000000,   0.24000,
,,,00.004348000000,   0.24000,
,,,00.004350000000,   0.24000,
,,,00.004352000000,   0.24000,
,,,00.004354000000,   0.24000,
,,,00.004356000000,   0.16000,
,,,00.004358000000,   0.16000,
,,,00.004360000000,   0.16000,
,,,00.004362000000,   0.24000,
,,,00.004364000000,   0.24000,
,,,00.004366000000,   0.16000,
,,,00.004368000000,   0.16000,
,,,00.004370000000,   0.24000,
,,,00.004372000000,   0.16000,
,,,00.004374000000,   0.24000,
,,,00.004376000000,   0.16000,
,,,00.004378000000,   0.16000,
,,,00.004380000000,   0.24000,
,,,00.004382000000,   0.24000,
,,,00.004384000000,   0.24000,
,,,00.004386000000,   0.16000,
,,,00.004388000000,   0.24000,
,,,00.004390000000,   0.16000,
,,,00.004392000000,   0.16000,
,,,00.004394000000,   0.24000,
,,,00.004396000000,   0.16000,
,,,00.004398000000,   0.24000,
,,,00.004400000000,   0.16000,
,,,00.004402000000,   0.16000,
,,,00.004404000000,   0.16000,
,,,00.004406000000,   0.16000,
,,,00.004408000000,   0.16000,
,,,00.004410000000,   0.16000,
,,,00.004412000000,   0.16000,
,,,00.004414000000,   0.16000,
,,,00.004416000000,   0.24000,
,,,00.004418000000,   0.16000,
,,,00.004420000000,   0.24000,
,,,00.004422000000,   0.16000,
,,,00.004424000000,   0.16000,
,,,00.004426000000,   0.16000,
,,,00.004428000000,   0.16000,
,,,00.004430000000,   0.16000,
,,,00.004432000000,   0.16000,
,,,00.004434000000,   0.24000,
,,,00.004436000000,   0.16000,
,,,00.004438000000,   0.24000,
,,,00.004440000000,   0.24000,
,,,00.004442000000,   0.24000,
,,,00.004444000000,   0.24000,
,,,00.004446000000,   0.16000,
,,,00.004448000000,   0.16000,
,,,00.004450000000,   0.24000,
,,,00.004452000000,   0.24000,
,,,00.004454000000,   0.24000,
,,,00.004456000000,   0.16000,
,,,00.004458000000,   0.16000,
,,,00.004460000000,   0.16000,
,,,00.004462000000,   0.24000,
,,,00.004464000000,   0.16000,
,,,00.004466000000,   0.24000,
,,,00.004468000000,   0.16000,
,,,00.004470000000,   0.24000,
,,,00.004472000000,   0.24000,
,,,00.004474000000,   0.16000,
,,,00.004476000000,   0.16000,
,,,00.004478000000,   0.16000,
,,,00.004480000000,   0.24000,
,,,00.004482000000,   0.16000,
,,,00.004484000000,   0.16000,
,,,00.004486000000,   0.24000,
,,,00.004488000000,   0.24000,
,,,00.004490000000,   0.16000,
,,,00.004492000000,   0.24000,
,,,00.004494000000,   0.24000,
,,,00.004496000000,   0.16000,
,,,00.004498000000,   0.24000,
